@relation 'finalReport-weka.filters.unsupervised.instance.RemoveWithValues-S0.0-C3-L5-H-weka.filters.unsupervised.attribute.Remove-R7-8,10-16,18-28'

@attribute 'INT or FP' {INT,FP}
@attribute bench {bzip2,crafty,gap,cc1,gzip,parser,mesa,art,equake}
@attribute 'Cache Type' {'Physical Cache','OBL Physical Cache','OBL Tagged Physical Cache','OBL2 Tagged Physical Cache','OBL Perceptron Physical Cache'}
@attribute 'Cache Size' {' 8KB',' 16KB',' 32KB',' 64KB',' 128KB'}
@attribute Associativity {1-way,2-way,4-way,8-way}
@attribute 'Block Size' {8B,16B,32B,64B}
@attribute 'History Slot Size' {8-slot,2-slot,4-slot,16-slot,32-slot,64-slot,128-slot}
@attribute 'Miss Rate' numeric

@data
INT,bzip2,'Physical Cache',' 8KB',1-way,8B,?,0.0147
INT,crafty,'Physical Cache',' 8KB',1-way,8B,?,0.0346
INT,gap,'Physical Cache',' 8KB',1-way,8B,?,0.0646
INT,cc1,'Physical Cache',' 8KB',1-way,8B,?,0.0548
INT,gzip,'Physical Cache',' 8KB',1-way,8B,?,0.0525
INT,parser,'Physical Cache',' 8KB',1-way,8B,?,0.0819
FP,mesa,'Physical Cache',' 8KB',1-way,8B,?,0.0125
FP,art,'Physical Cache',' 8KB',1-way,8B,?,0.116
FP,equake,'Physical Cache',' 8KB',1-way,8B,?,0.0483
INT,bzip2,'Physical Cache',' 8KB',1-way,16B,?,0.0126
INT,crafty,'Physical Cache',' 8KB',1-way,16B,?,0.0329
INT,gap,'Physical Cache',' 8KB',1-way,16B,?,0.0506
INT,cc1,'Physical Cache',' 8KB',1-way,16B,?,0.0511
INT,gzip,'Physical Cache',' 8KB',1-way,16B,?,0.0444
INT,parser,'Physical Cache',' 8KB',1-way,16B,?,0.0613
FP,mesa,'Physical Cache',' 8KB',1-way,16B,?,0.0318
FP,art,'Physical Cache',' 8KB',1-way,16B,?,0.0968
FP,equake,'Physical Cache',' 8KB',1-way,16B,?,0.039
INT,bzip2,'Physical Cache',' 8KB',1-way,32B,?,0.0121
INT,crafty,'Physical Cache',' 8KB',1-way,32B,?,0.0345
INT,gap,'Physical Cache',' 8KB',1-way,32B,?,0.0452
INT,cc1,'Physical Cache',' 8KB',1-way,32B,?,0.04
INT,gzip,'Physical Cache',' 8KB',1-way,32B,?,0.0395
INT,parser,'Physical Cache',' 8KB',1-way,32B,?,0.038
FP,mesa,'Physical Cache',' 8KB',1-way,32B,?,0.0085
FP,art,'Physical Cache',' 8KB',1-way,32B,?,0.0834
FP,equake,'Physical Cache',' 8KB',1-way,32B,?,0.0309
INT,bzip2,'Physical Cache',' 8KB',1-way,64B,?,0.0188
INT,crafty,'Physical Cache',' 8KB',1-way,64B,?,0.0392
INT,gap,'Physical Cache',' 8KB',1-way,64B,?,0.0479
INT,cc1,'Physical Cache',' 8KB',1-way,64B,?,0.0382
INT,gzip,'Physical Cache',' 8KB',1-way,64B,?,0.0417
INT,parser,'Physical Cache',' 8KB',1-way,64B,?,0.033
FP,mesa,'Physical Cache',' 8KB',1-way,64B,?,0.025
FP,art,'Physical Cache',' 8KB',1-way,64B,?,0.063
FP,equake,'Physical Cache',' 8KB',1-way,64B,?,0.0322
INT,bzip2,'Physical Cache',' 8KB',2-way,32B,?,0.0177
INT,crafty,'Physical Cache',' 8KB',2-way,32B,?,0.0547
INT,gap,'Physical Cache',' 8KB',2-way,32B,?,0.0681
INT,cc1,'Physical Cache',' 8KB',2-way,32B,?,0.0596
INT,gzip,'Physical Cache',' 8KB',2-way,32B,?,0.0481
INT,parser,'Physical Cache',' 8KB',2-way,32B,?,0.0499
FP,mesa,'Physical Cache',' 8KB',2-way,32B,?,0.0155
FP,art,'Physical Cache',' 8KB',2-way,32B,?,0.088
FP,equake,'Physical Cache',' 8KB',2-way,32B,?,0.0439
INT,bzip2,'Physical Cache',' 8KB',4-way,32B,?,0.0088
INT,crafty,'Physical Cache',' 8KB',4-way,32B,?,0.0312
INT,gap,'Physical Cache',' 8KB',4-way,32B,?,0.0244
INT,cc1,'Physical Cache',' 8KB',4-way,32B,?,0.0288
INT,gzip,'Physical Cache',' 8KB',4-way,32B,?,0.0322
INT,parser,'Physical Cache',' 8KB',4-way,32B,?,0.0312
FP,mesa,'Physical Cache',' 8KB',4-way,32B,?,0.0032
FP,art,'Physical Cache',' 8KB',4-way,32B,?,0.0799
FP,equake,'Physical Cache',' 8KB',4-way,32B,?,0.0174
INT,bzip2,'Physical Cache',' 8KB',8-way,32B,?,0.009
INT,crafty,'Physical Cache',' 8KB',8-way,32B,?,0.028
INT,gap,'Physical Cache',' 8KB',8-way,32B,?,0.0234
INT,cc1,'Physical Cache',' 8KB',8-way,32B,?,0.0289
INT,gzip,'Physical Cache',' 8KB',8-way,32B,?,0.0323
INT,parser,'Physical Cache',' 8KB',8-way,32B,?,0.0322
FP,mesa,'Physical Cache',' 8KB',8-way,32B,?,0.0032
FP,art,'Physical Cache',' 8KB',8-way,32B,?,0.0792
FP,equake,'Physical Cache',' 8KB',8-way,32B,?,0.0164
INT,bzip2,'Physical Cache',' 16KB',1-way,8B,?,0.012
INT,crafty,'Physical Cache',' 16KB',1-way,8B,?,0.0135
INT,gap,'Physical Cache',' 16KB',1-way,8B,?,0.0501
INT,cc1,'Physical Cache',' 16KB',1-way,8B,?,0.0397
INT,gzip,'Physical Cache',' 16KB',1-way,8B,?,0.0474
INT,parser,'Physical Cache',' 16KB',1-way,8B,?,0.0759
FP,mesa,'Physical Cache',' 16KB',1-way,8B,?,0.0114
FP,art,'Physical Cache',' 16KB',1-way,8B,?,0.1153
FP,equake,'Physical Cache',' 16KB',1-way,8B,?,0.0456
INT,bzip2,'Physical Cache',' 16KB',1-way,16B,?,0.0111
INT,crafty,'Physical Cache',' 16KB',1-way,16B,?,0.017
INT,gap,'Physical Cache',' 16KB',1-way,16B,?,0.033
INT,cc1,'Physical Cache',' 16KB',1-way,16B,?,0.0346
INT,gzip,'Physical Cache',' 16KB',1-way,16B,?,0.0385
INT,parser,'Physical Cache',' 16KB',1-way,16B,?,0.048
FP,mesa,'Physical Cache',' 16KB',1-way,16B,?,0.0145
FP,art,'Physical Cache',' 16KB',1-way,16B,?,0.0954
FP,equake,'Physical Cache',' 16KB',1-way,16B,?,0.0311
INT,bzip2,'Physical Cache',' 16KB',1-way,32B,?,0.0102
INT,crafty,'Physical Cache',' 16KB',1-way,32B,?,0.0212
INT,gap,'Physical Cache',' 16KB',1-way,32B,?,0.029
INT,cc1,'Physical Cache',' 16KB',1-way,32B,?,0.0273
INT,gzip,'Physical Cache',' 16KB',1-way,32B,?,0.033
INT,parser,'Physical Cache',' 16KB',1-way,32B,?,0.0322
FP,mesa,'Physical Cache',' 16KB',1-way,32B,?,0.0051
FP,art,'Physical Cache',' 16KB',1-way,32B,?,0.0811
FP,equake,'Physical Cache',' 16KB',1-way,32B,?,0.02
INT,bzip2,'Physical Cache',' 16KB',1-way,64B,?,0.0088
INT,crafty,'Physical Cache',' 16KB',1-way,64B,?,0.0415
INT,gap,'Physical Cache',' 16KB',1-way,64B,?,0.0259
INT,cc1,'Physical Cache',' 16KB',1-way,64B,?,0.0257
INT,gzip,'Physical Cache',' 16KB',1-way,64B,?,0.0321
INT,parser,'Physical Cache',' 16KB',1-way,64B,?,0.0222
FP,mesa,'Physical Cache',' 16KB',1-way,64B,?,0.0076
FP,art,'Physical Cache',' 16KB',1-way,64B,?,0.0591
FP,equake,'Physical Cache',' 16KB',1-way,64B,?,0.0208
INT,bzip2,'Physical Cache',' 16KB',2-way,32B,?,0.0148
INT,crafty,'Physical Cache',' 16KB',2-way,32B,?,0.0366
INT,gap,'Physical Cache',' 16KB',2-way,32B,?,0.0418
INT,cc1,'Physical Cache',' 16KB',2-way,32B,?,0.0405
INT,gzip,'Physical Cache',' 16KB',2-way,32B,?,0.0398
INT,parser,'Physical Cache',' 16KB',2-way,32B,?,0.0374
FP,mesa,'Physical Cache',' 16KB',2-way,32B,?,0.0062
FP,art,'Physical Cache',' 16KB',2-way,32B,?,0.0831
FP,equake,'Physical Cache',' 16KB',2-way,32B,?,0.0274
INT,bzip2,'Physical Cache',' 16KB',4-way,32B,?,0.0076
INT,crafty,'Physical Cache',' 16KB',4-way,32B,?,0.0135
INT,gap,'Physical Cache',' 16KB',4-way,32B,?,0.0152
INT,cc1,'Physical Cache',' 16KB',4-way,32B,?,0.0186
INT,gzip,'Physical Cache',' 16KB',4-way,32B,?,0.0293
INT,parser,'Physical Cache',' 16KB',4-way,32B,?,0.0259
FP,mesa,'Physical Cache',' 16KB',4-way,32B,?,0.0024
FP,art,'Physical Cache',' 16KB',4-way,32B,?,0.0792
FP,equake,'Physical Cache',' 16KB',4-way,32B,?,0.0139
INT,bzip2,'Physical Cache',' 16KB',8-way,32B,?,0.0076
INT,crafty,'Physical Cache',' 16KB',8-way,32B,?,0.0116
INT,gap,'Physical Cache',' 16KB',8-way,32B,?,0.0156
INT,cc1,'Physical Cache',' 16KB',8-way,32B,?,0.0197
INT,gzip,'Physical Cache',' 16KB',8-way,32B,?,0.0289
INT,parser,'Physical Cache',' 16KB',8-way,32B,?,0.0268
FP,mesa,'Physical Cache',' 16KB',8-way,32B,?,0.0028
FP,art,'Physical Cache',' 16KB',8-way,32B,?,0.079
FP,equake,'Physical Cache',' 16KB',8-way,32B,?,0.0145
INT,bzip2,'Physical Cache',' 32KB',1-way,8B,?,0.0106
INT,crafty,'Physical Cache',' 32KB',1-way,8B,?,0.0221
INT,gap,'Physical Cache',' 32KB',1-way,8B,?,0.0415
INT,cc1,'Physical Cache',' 32KB',1-way,8B,?,0.026
INT,gzip,'Physical Cache',' 32KB',1-way,8B,?,0.0422
INT,parser,'Physical Cache',' 32KB',1-way,8B,?,0.0645
FP,mesa,'Physical Cache',' 32KB',1-way,8B,?,0.0068
FP,art,'Physical Cache',' 32KB',1-way,8B,?,0.1305
FP,equake,'Physical Cache',' 32KB',1-way,8B,?,0.042
INT,bzip2,'Physical Cache',' 32KB',1-way,16B,?,0.0086
INT,crafty,'Physical Cache',' 32KB',1-way,16B,?,0.0086
INT,gap,'Physical Cache',' 32KB',1-way,16B,?,0.025
INT,cc1,'Physical Cache',' 32KB',1-way,16B,?,0.023
INT,gzip,'Physical Cache',' 32KB',1-way,16B,?,0.0334
INT,parser,'Physical Cache',' 32KB',1-way,16B,?,0.0431
FP,mesa,'Physical Cache',' 32KB',1-way,16B,?,0.0037
FP,art,'Physical Cache',' 32KB',1-way,16B,?,0.0948
FP,equake,'Physical Cache',' 32KB',1-way,16B,?,0.0272
INT,bzip2,'Physical Cache',' 32KB',1-way,32B,?,0.0078
INT,crafty,'Physical Cache',' 32KB',1-way,32B,?,0.0112
INT,gap,'Physical Cache',' 32KB',1-way,32B,?,0.0197
INT,cc1,'Physical Cache',' 32KB',1-way,32B,?,0.0174
INT,gzip,'Physical Cache',' 32KB',1-way,32B,?,0.0272
INT,parser,'Physical Cache',' 32KB',1-way,32B,?,0.0268
FP,mesa,'Physical Cache',' 32KB',1-way,32B,?,0.0031
FP,art,'Physical Cache',' 32KB',1-way,32B,?,0.0802
FP,equake,'Physical Cache',' 32KB',1-way,32B,?,0.0166
INT,bzip2,'Physical Cache',' 32KB',1-way,64B,?,0.0078
INT,crafty,'Physical Cache',' 32KB',1-way,64B,?,0.0193
INT,gap,'Physical Cache',' 32KB',1-way,64B,?,0.0189
INT,cc1,'Physical Cache',' 32KB',1-way,64B,?,0.0154
INT,gzip,'Physical Cache',' 32KB',1-way,64B,?,0.0259
INT,parser,'Physical Cache',' 32KB',1-way,64B,?,0.0194
FP,mesa,'Physical Cache',' 32KB',1-way,64B,?,0.0013
FP,art,'Physical Cache',' 32KB',1-way,64B,?,0.057
FP,equake,'Physical Cache',' 32KB',1-way,64B,?,0.0112
INT,bzip2,'Physical Cache',' 32KB',2-way,32B,?,0.0087
INT,crafty,'Physical Cache',' 32KB',2-way,32B,?,0.0208
INT,gap,'Physical Cache',' 32KB',2-way,32B,?,0.0271
INT,cc1,'Physical Cache',' 32KB',2-way,32B,?,0.0267
INT,gzip,'Physical Cache',' 32KB',2-way,32B,?,0.0329
INT,parser,'Physical Cache',' 32KB',2-way,32B,?,0.0291
FP,mesa,'Physical Cache',' 32KB',2-way,32B,?,0.0051
FP,art,'Physical Cache',' 32KB',2-way,32B,?,0.0813
FP,equake,'Physical Cache',' 32KB',2-way,32B,?,0.0194
INT,bzip2,'Physical Cache',' 32KB',4-way,32B,?,0.0071
INT,crafty,'Physical Cache',' 32KB',4-way,32B,?,0.0049
INT,gap,'Physical Cache',' 32KB',4-way,32B,?,0.0115
INT,cc1,'Physical Cache',' 32KB',4-way,32B,?,0.0118
INT,gzip,'Physical Cache',' 32KB',4-way,32B,?,0.0267
INT,parser,'Physical Cache',' 32KB',4-way,32B,?,0.0222
FP,mesa,'Physical Cache',' 32KB',4-way,32B,?,0.0017
FP,art,'Physical Cache',' 32KB',4-way,32B,?,0.0792
FP,equake,'Physical Cache',' 32KB',4-way,32B,?,0.0129
INT,bzip2,'Physical Cache',' 32KB',8-way,32B,?,0.007
INT,crafty,'Physical Cache',' 32KB',8-way,32B,?,0.0041
INT,gap,'Physical Cache',' 32KB',8-way,32B,?,0.012
INT,cc1,'Physical Cache',' 32KB',8-way,32B,?,0.0124
INT,gzip,'Physical Cache',' 32KB',8-way,32B,?,0.0259
INT,parser,'Physical Cache',' 32KB',8-way,32B,?,0.0227
FP,mesa,'Physical Cache',' 32KB',8-way,32B,?,0.002
FP,art,'Physical Cache',' 32KB',8-way,32B,?,0.0787
FP,equake,'Physical Cache',' 32KB',8-way,32B,?,0.0133
INT,bzip2,'Physical Cache',' 64KB',1-way,8B,?,0.0097
INT,crafty,'Physical Cache',' 64KB',1-way,8B,?,0.003
INT,gap,'Physical Cache',' 64KB',1-way,8B,?,0.0327
INT,cc1,'Physical Cache',' 64KB',1-way,8B,?,0.019
INT,gzip,'Physical Cache',' 64KB',1-way,8B,?,0.0359
INT,parser,'Physical Cache',' 64KB',1-way,8B,?,0.0571
FP,mesa,'Physical Cache',' 64KB',1-way,8B,?,0.0066
FP,art,'Physical Cache',' 64KB',1-way,8B,?,0.1121
FP,equake,'Physical Cache',' 64KB',1-way,8B,?,0.0424
INT,bzip2,'Physical Cache',' 64KB',1-way,16B,?,0.0078
INT,crafty,'Physical Cache',' 64KB',1-way,16B,?,0.0032
INT,gap,'Physical Cache',' 64KB',1-way,16B,?,0.0223
INT,cc1,'Physical Cache',' 64KB',1-way,16B,?,0.0182
INT,gzip,'Physical Cache',' 64KB',1-way,16B,?,0.0282
INT,parser,'Physical Cache',' 64KB',1-way,16B,?,0.0334
FP,mesa,'Physical Cache',' 64KB',1-way,16B,?,0.0049
FP,art,'Physical Cache',' 64KB',1-way,16B,?,0.0943
FP,equake,'Physical Cache',' 64KB',1-way,16B,?,0.0248
INT,bzip2,'Physical Cache',' 64KB',1-way,32B,?,0.007
INT,crafty,'Physical Cache',' 64KB',1-way,32B,?,0.0073
INT,gap,'Physical Cache',' 64KB',1-way,32B,?,0.0136
INT,cc1,'Physical Cache',' 64KB',1-way,32B,?,0.0127
INT,gzip,'Physical Cache',' 64KB',1-way,32B,?,0.0222
INT,parser,'Physical Cache',' 64KB',1-way,32B,?,0.0206
FP,mesa,'Physical Cache',' 64KB',1-way,32B,?,0.0033
FP,art,'Physical Cache',' 64KB',1-way,32B,?,0.0799
FP,equake,'Physical Cache',' 64KB',1-way,32B,?,0.022
INT,bzip2,'Physical Cache',' 64KB',1-way,64B,?,0.0067
INT,crafty,'Physical Cache',' 64KB',1-way,64B,?,0.0066
INT,gap,'Physical Cache',' 64KB',1-way,64B,?,0.0119
INT,cc1,'Physical Cache',' 64KB',1-way,64B,?,0.0102
INT,gzip,'Physical Cache',' 64KB',1-way,64B,?,0.0207
INT,parser,'Physical Cache',' 64KB',1-way,64B,?,0.0133
FP,mesa,'Physical Cache',' 64KB',1-way,64B,?,0.0009
FP,art,'Physical Cache',' 64KB',1-way,64B,?,0.0565
FP,equake,'Physical Cache',' 64KB',1-way,64B,?,0.0134
INT,bzip2,'Physical Cache',' 64KB',2-way,32B,?,0.0077
INT,crafty,'Physical Cache',' 64KB',2-way,32B,?,0.0098
INT,gap,'Physical Cache',' 64KB',2-way,32B,?,0.0188
INT,cc1,'Physical Cache',' 64KB',2-way,32B,?,0.0176
INT,gzip,'Physical Cache',' 64KB',2-way,32B,?,0.0274
INT,parser,'Physical Cache',' 64KB',2-way,32B,?,0.025
FP,mesa,'Physical Cache',' 64KB',2-way,32B,?,0.0039
FP,art,'Physical Cache',' 64KB',2-way,32B,?,0.0802
FP,equake,'Physical Cache',' 64KB',2-way,32B,?,0.0207
INT,bzip2,'Physical Cache',' 64KB',4-way,32B,?,0.0067
INT,crafty,'Physical Cache',' 64KB',4-way,32B,?,0.0017
INT,gap,'Physical Cache',' 64KB',4-way,32B,?,0.0096
INT,cc1,'Physical Cache',' 64KB',4-way,32B,?,0.0084
INT,gzip,'Physical Cache',' 64KB',4-way,32B,?,0.0221
INT,parser,'Physical Cache',' 64KB',4-way,32B,?,0.0189
FP,mesa,'Physical Cache',' 64KB',4-way,32B,?,0.0015
FP,art,'Physical Cache',' 64KB',4-way,32B,?,0.0791
FP,equake,'Physical Cache',' 64KB',4-way,32B,?,0.0123
INT,bzip2,'Physical Cache',' 64KB',8-way,32B,?,0.0068
INT,crafty,'Physical Cache',' 64KB',8-way,32B,?,0.0015
INT,gap,'Physical Cache',' 64KB',8-way,32B,?,0.01
INT,cc1,'Physical Cache',' 64KB',8-way,32B,?,0.0074
INT,gzip,'Physical Cache',' 64KB',8-way,32B,?,0.0212
INT,parser,'Physical Cache',' 64KB',8-way,32B,?,0.0193
FP,mesa,'Physical Cache',' 64KB',8-way,32B,?,0.0017
FP,art,'Physical Cache',' 64KB',8-way,32B,?,0.0786
FP,equake,'Physical Cache',' 64KB',8-way,32B,?,0.0126
INT,bzip2,'Physical Cache',' 128KB',1-way,8B,?,0.0092
INT,crafty,'Physical Cache',' 128KB',1-way,8B,?,0.0015
INT,gap,'Physical Cache',' 128KB',1-way,8B,?,0.0297
INT,cc1,'Physical Cache',' 128KB',1-way,8B,?,0.0119
INT,gzip,'Physical Cache',' 128KB',1-way,8B,?,0.028
INT,parser,'Physical Cache',' 128KB',1-way,8B,?,0.0483
FP,mesa,'Physical Cache',' 128KB',1-way,8B,?,0.0075
FP,art,'Physical Cache',' 128KB',1-way,8B,?,0.1046
FP,equake,'Physical Cache',' 128KB',1-way,8B,?,0.0366
INT,bzip2,'Physical Cache',' 128KB',1-way,16B,?,0.0072
INT,crafty,'Physical Cache',' 128KB',1-way,16B,?,0.0024
INT,gap,'Physical Cache',' 128KB',1-way,16B,?,0.0166
INT,cc1,'Physical Cache',' 128KB',1-way,16B,?,0.0097
INT,gzip,'Physical Cache',' 128KB',1-way,16B,?,0.0215
INT,parser,'Physical Cache',' 128KB',1-way,16B,?,0.0276
FP,mesa,'Physical Cache',' 128KB',1-way,16B,?,0.0033
FP,art,'Physical Cache',' 128KB',1-way,16B,?,0.0898
FP,equake,'Physical Cache',' 128KB',1-way,16B,?,0.0237
INT,bzip2,'Physical Cache',' 128KB',1-way,32B,?,0.0064
INT,crafty,'Physical Cache',' 128KB',1-way,32B,?,0.0024
INT,gap,'Physical Cache',' 128KB',1-way,32B,?,0.011
INT,cc1,'Physical Cache',' 128KB',1-way,32B,?,0.0066
INT,gzip,'Physical Cache',' 128KB',1-way,32B,?,0.0169
INT,parser,'Physical Cache',' 128KB',1-way,32B,?,0.016
FP,mesa,'Physical Cache',' 128KB',1-way,32B,?,0.0016
FP,art,'Physical Cache',' 128KB',1-way,32B,?,0.0787
FP,equake,'Physical Cache',' 128KB',1-way,32B,?,0.0127
INT,bzip2,'Physical Cache',' 128KB',1-way,64B,?,0.0059
INT,crafty,'Physical Cache',' 128KB',1-way,64B,?,0.004
INT,gap,'Physical Cache',' 128KB',1-way,64B,?,0.0072
INT,cc1,'Physical Cache',' 128KB',1-way,64B,?,0.0058
INT,gzip,'Physical Cache',' 128KB',1-way,64B,?,0.0149
INT,parser,'Physical Cache',' 128KB',1-way,64B,?,0.0094
FP,mesa,'Physical Cache',' 128KB',1-way,64B,?,0.0012
FP,art,'Physical Cache',' 128KB',1-way,64B,?,0.0559
FP,equake,'Physical Cache',' 128KB',1-way,64B,?,0.0078
INT,bzip2,'Physical Cache',' 128KB',2-way,32B,?,0.0069
INT,crafty,'Physical Cache',' 128KB',2-way,32B,?,0.0039
INT,gap,'Physical Cache',' 128KB',2-way,32B,?,0.0144
INT,cc1,'Physical Cache',' 128KB',2-way,32B,?,0.0103
INT,gzip,'Physical Cache',' 128KB',2-way,32B,?,0.0223
INT,parser,'Physical Cache',' 128KB',2-way,32B,?,0.0207
FP,mesa,'Physical Cache',' 128KB',2-way,32B,?,0.0019
FP,art,'Physical Cache',' 128KB',2-way,32B,?,0.0796
FP,equake,'Physical Cache',' 128KB',2-way,32B,?,0.0139
INT,bzip2,'Physical Cache',' 128KB',4-way,32B,?,0.0064
INT,crafty,'Physical Cache',' 128KB',4-way,32B,?,0.0007
INT,gap,'Physical Cache',' 128KB',4-way,32B,?,0.0086
INT,cc1,'Physical Cache',' 128KB',4-way,32B,?,0.0047
INT,gzip,'Physical Cache',' 128KB',4-way,32B,?,0.0156
INT,parser,'Physical Cache',' 128KB',4-way,32B,?,0.0154
FP,mesa,'Physical Cache',' 128KB',4-way,32B,?,0.0015
FP,art,'Physical Cache',' 128KB',4-way,32B,?,0.079
FP,equake,'Physical Cache',' 128KB',4-way,32B,?,0.0119
INT,bzip2,'Physical Cache',' 128KB',8-way,32B,?,0.0063
INT,crafty,'Physical Cache',' 128KB',8-way,32B,?,0.0007
INT,gap,'Physical Cache',' 128KB',8-way,32B,?,0.009
INT,cc1,'Physical Cache',' 128KB',8-way,32B,?,0.0045
INT,gzip,'Physical Cache',' 128KB',8-way,32B,?,0.0139
INT,parser,'Physical Cache',' 128KB',8-way,32B,?,0.0157
FP,mesa,'Physical Cache',' 128KB',8-way,32B,?,0.0015
FP,art,'Physical Cache',' 128KB',8-way,32B,?,0.0775
FP,equake,'Physical Cache',' 128KB',8-way,32B,?,0.0121
INT,bzip2,'OBL Physical Cache',' 8KB',1-way,8B,?,0.0134
INT,bzip2,'OBL Tagged Physical Cache',' 8KB',1-way,8B,?,0.013
INT,bzip2,'OBL2 Tagged Physical Cache',' 8KB',1-way,8B,?,0.0149
INT,crafty,'OBL Physical Cache',' 8KB',1-way,8B,?,0.033
INT,crafty,'OBL Tagged Physical Cache',' 8KB',1-way,8B,?,0.0331
INT,crafty,'OBL2 Tagged Physical Cache',' 8KB',1-way,8B,?,0.0371
INT,gap,'OBL Physical Cache',' 8KB',1-way,8B,?,0.056
INT,gap,'OBL Tagged Physical Cache',' 8KB',1-way,8B,?,0.0439
INT,gap,'OBL2 Tagged Physical Cache',' 8KB',1-way,8B,?,0.0451
INT,cc1,'OBL Physical Cache',' 8KB',1-way,8B,?,0.0499
INT,cc1,'OBL Tagged Physical Cache',' 8KB',1-way,8B,?,0.0465
INT,cc1,'OBL2 Tagged Physical Cache',' 8KB',1-way,8B,?,0.0335
INT,gzip,'OBL Physical Cache',' 8KB',1-way,8B,?,0.0444
INT,gzip,'OBL Tagged Physical Cache',' 8KB',1-way,8B,?,0.0358
INT,gzip,'OBL2 Tagged Physical Cache',' 8KB',1-way,8B,?,0.0329
INT,parser,'OBL Physical Cache',' 8KB',1-way,8B,?,0.0601
INT,parser,'OBL Tagged Physical Cache',' 8KB',1-way,8B,?,0.0425
INT,parser,'OBL2 Tagged Physical Cache',' 8KB',1-way,8B,?,0.0324
FP,mesa,'OBL Physical Cache',' 8KB',1-way,8B,?,0.0065
FP,mesa,'OBL Tagged Physical Cache',' 8KB',1-way,8B,?,0.0019
FP,mesa,'OBL2 Tagged Physical Cache',' 8KB',1-way,8B,?,0.002
FP,art,'OBL Physical Cache',' 8KB',1-way,8B,?,0.0873
FP,art,'OBL Tagged Physical Cache',' 8KB',1-way,8B,?,0.0811
FP,art,'OBL2 Tagged Physical Cache',' 8KB',1-way,8B,?,0.0806
FP,equake,'OBL Physical Cache',' 8KB',1-way,8B,?,0.0543
FP,equake,'OBL Tagged Physical Cache',' 8KB',1-way,8B,?,0.0405
FP,equake,'OBL2 Tagged Physical Cache',' 8KB',1-way,8B,?,0.0295
INT,bzip2,'OBL Physical Cache',' 8KB',1-way,16B,?,0.0119
INT,bzip2,'OBL Tagged Physical Cache',' 8KB',1-way,16B,?,0.011
INT,bzip2,'OBL2 Tagged Physical Cache',' 8KB',1-way,16B,?,0.0115
INT,crafty,'OBL Physical Cache',' 8KB',1-way,16B,?,0.0362
INT,crafty,'OBL Tagged Physical Cache',' 8KB',1-way,16B,?,0.0363
INT,crafty,'OBL2 Tagged Physical Cache',' 8KB',1-way,16B,?,0.04
INT,gap,'OBL Physical Cache',' 8KB',1-way,16B,?,0.0436
INT,gap,'OBL Tagged Physical Cache',' 8KB',1-way,16B,?,0.0382
INT,gap,'OBL2 Tagged Physical Cache',' 8KB',1-way,16B,?,0.0424
INT,cc1,'OBL Physical Cache',' 8KB',1-way,16B,?,0.0399
INT,cc1,'OBL Tagged Physical Cache',' 8KB',1-way,16B,?,0.0318
INT,cc1,'OBL2 Tagged Physical Cache',' 8KB',1-way,16B,?,0.0336
INT,gzip,'OBL Physical Cache',' 8KB',1-way,16B,?,0.0391
INT,gzip,'OBL Tagged Physical Cache',' 8KB',1-way,16B,?,0.0333
INT,gzip,'OBL2 Tagged Physical Cache',' 8KB',1-way,16B,?,0.0353
INT,parser,'OBL Physical Cache',' 8KB',1-way,16B,?,0.0414
INT,parser,'OBL Tagged Physical Cache',' 8KB',1-way,16B,?,0.0282
INT,parser,'OBL2 Tagged Physical Cache',' 8KB',1-way,16B,?,0.0284
FP,mesa,'OBL Physical Cache',' 8KB',1-way,16B,?,0.0069
FP,mesa,'OBL Tagged Physical Cache',' 8KB',1-way,16B,?,0.0052
FP,mesa,'OBL2 Tagged Physical Cache',' 8KB',1-way,16B,?,0.0063
FP,art,'OBL Physical Cache',' 8KB',1-way,16B,?,0.0793
FP,art,'OBL Tagged Physical Cache',' 8KB',1-way,16B,?,0.0746
FP,art,'OBL2 Tagged Physical Cache',' 8KB',1-way,16B,?,0.0568
FP,equake,'OBL Physical Cache',' 8KB',1-way,16B,?,0.0252
FP,equake,'OBL Tagged Physical Cache',' 8KB',1-way,16B,?,0.0155
FP,equake,'OBL2 Tagged Physical Cache',' 8KB',1-way,16B,?,0.0175
INT,bzip2,'OBL Physical Cache',' 8KB',1-way,32B,?,0.0123
INT,bzip2,'OBL Tagged Physical Cache',' 8KB',1-way,32B,?,0.0122
INT,bzip2,'OBL2 Tagged Physical Cache',' 8KB',1-way,32B,?,0.0132
INT,crafty,'OBL Physical Cache',' 8KB',1-way,32B,?,0.0391
INT,crafty,'OBL Tagged Physical Cache',' 8KB',1-way,32B,?,0.0405
INT,crafty,'OBL2 Tagged Physical Cache',' 8KB',1-way,32B,?,0.0449
INT,gap,'OBL Physical Cache',' 8KB',1-way,32B,?,0.044
INT,gap,'OBL Tagged Physical Cache',' 8KB',1-way,32B,?,0.0421
INT,gap,'OBL2 Tagged Physical Cache',' 8KB',1-way,32B,?,0.0482
INT,cc1,'OBL Physical Cache',' 8KB',1-way,32B,?,0.0377
INT,cc1,'OBL Tagged Physical Cache',' 8KB',1-way,32B,?,0.0343
INT,cc1,'OBL2 Tagged Physical Cache',' 8KB',1-way,32B,?,0.0388
INT,gzip,'OBL Physical Cache',' 8KB',1-way,32B,?,0.0384
INT,gzip,'OBL Tagged Physical Cache',' 8KB',1-way,32B,?,0.0366
INT,gzip,'OBL2 Tagged Physical Cache',' 8KB',1-way,32B,?,0.0397
INT,parser,'OBL Physical Cache',' 8KB',1-way,32B,?,0.0333
INT,parser,'OBL Tagged Physical Cache',' 8KB',1-way,32B,?,0.0273
INT,parser,'OBL2 Tagged Physical Cache',' 8KB',1-way,32B,?,0.0299
FP,mesa,'OBL Physical Cache',' 8KB',1-way,32B,?,0.0069
FP,mesa,'OBL Tagged Physical Cache',' 8KB',1-way,32B,?,0.0079
FP,mesa,'OBL2 Tagged Physical Cache',' 8KB',1-way,32B,?,0.0089
FP,art,'OBL Physical Cache',' 8KB',1-way,32B,?,0.0563
FP,art,'OBL Tagged Physical Cache',' 8KB',1-way,32B,?,0.041
FP,art,'OBL2 Tagged Physical Cache',' 8KB',1-way,32B,?,0.013
FP,equake,'OBL Physical Cache',' 8KB',1-way,32B,?,0.0243
FP,equake,'OBL Tagged Physical Cache',' 8KB',1-way,32B,?,0.0209
FP,equake,'OBL2 Tagged Physical Cache',' 8KB',1-way,32B,?,0.0242
INT,bzip2,'OBL Physical Cache',' 8KB',1-way,64B,?,0.0132
INT,bzip2,'OBL Tagged Physical Cache',' 8KB',1-way,64B,?,0.0135
INT,bzip2,'OBL2 Tagged Physical Cache',' 8KB',1-way,64B,?,0.0152
INT,crafty,'OBL Physical Cache',' 8KB',1-way,64B,?,0.046
INT,crafty,'OBL Tagged Physical Cache',' 8KB',1-way,64B,?,0.0479
INT,crafty,'OBL2 Tagged Physical Cache',' 8KB',1-way,64B,?,0.0545
INT,gap,'OBL Physical Cache',' 8KB',1-way,64B,?,0.0538
INT,gap,'OBL Tagged Physical Cache',' 8KB',1-way,64B,?,0.0555
INT,gap,'OBL2 Tagged Physical Cache',' 8KB',1-way,64B,?,0.0662
INT,cc1,'OBL Physical Cache',' 8KB',1-way,64B,?,0.0413
INT,cc1,'OBL Tagged Physical Cache',' 8KB',1-way,64B,?,0.0412
INT,cc1,'OBL2 Tagged Physical Cache',' 8KB',1-way,64B,?,0.0473
INT,gzip,'OBL Physical Cache',' 8KB',1-way,64B,?,0.0429
INT,gzip,'OBL Tagged Physical Cache',' 8KB',1-way,64B,?,0.0432
INT,gzip,'OBL2 Tagged Physical Cache',' 8KB',1-way,64B,?,0.0489
INT,parser,'OBL Physical Cache',' 8KB',1-way,64B,?,0.0433
INT,parser,'OBL Tagged Physical Cache',' 8KB',1-way,64B,?,0.0419
INT,parser,'OBL2 Tagged Physical Cache',' 8KB',1-way,64B,?,0.0475
FP,mesa,'OBL Physical Cache',' 8KB',1-way,64B,?,0.0364
FP,mesa,'OBL Tagged Physical Cache',' 8KB',1-way,64B,?,0.0388
FP,mesa,'OBL2 Tagged Physical Cache',' 8KB',1-way,64B,?,0.0434
FP,art,'OBL Physical Cache',' 8KB',1-way,64B,?,0.0388
FP,art,'OBL Tagged Physical Cache',' 8KB',1-way,64B,?,0.0157
FP,art,'OBL2 Tagged Physical Cache',' 8KB',1-way,64B,?,0.0195
FP,equake,'OBL Physical Cache',' 8KB',1-way,64B,?,0.0255
FP,equake,'OBL Tagged Physical Cache',' 8KB',1-way,64B,?,0.026
FP,equake,'OBL2 Tagged Physical Cache',' 8KB',1-way,64B,?,0.0318
INT,bzip2,'OBL Physical Cache',' 8KB',2-way,32B,?,0.0148
INT,bzip2,'OBL Tagged Physical Cache',' 8KB',2-way,32B,?,0.0143
INT,bzip2,'OBL2 Tagged Physical Cache',' 8KB',2-way,32B,?,0.0157
INT,crafty,'OBL Physical Cache',' 8KB',2-way,32B,?,0.0373
INT,crafty,'OBL Tagged Physical Cache',' 8KB',2-way,32B,?,0.0384
INT,crafty,'OBL2 Tagged Physical Cache',' 8KB',2-way,32B,?,0.0412
INT,gap,'OBL Physical Cache',' 8KB',2-way,32B,?,0.0409
INT,gap,'OBL Tagged Physical Cache',' 8KB',2-way,32B,?,0.0422
INT,gap,'OBL2 Tagged Physical Cache',' 8KB',2-way,32B,?,0.0471
INT,cc1,'OBL Physical Cache',' 8KB',2-way,32B,?,0.0335
INT,cc1,'OBL Tagged Physical Cache',' 8KB',2-way,32B,?,0.0323
INT,cc1,'OBL2 Tagged Physical Cache',' 8KB',2-way,32B,?,0.0354
INT,gzip,'OBL Physical Cache',' 8KB',2-way,32B,?,0.0357
INT,gzip,'OBL Tagged Physical Cache',' 8KB',2-way,32B,?,0.0312
INT,gzip,'OBL2 Tagged Physical Cache',' 8KB',2-way,32B,?,0.0349
INT,parser,'OBL Physical Cache',' 8KB',2-way,32B,?,0.0308
INT,parser,'OBL Tagged Physical Cache',' 8KB',2-way,32B,?,0.0259
INT,parser,'OBL2 Tagged Physical Cache',' 8KB',2-way,32B,?,0.0271
FP,mesa,'OBL Physical Cache',' 8KB',2-way,32B,?,0.0054
FP,mesa,'OBL Tagged Physical Cache',' 8KB',2-way,32B,?,0.0115
FP,mesa,'OBL2 Tagged Physical Cache',' 8KB',2-way,32B,?,0.0224
FP,art,'OBL Physical Cache',' 8KB',2-way,32B,?,0.0527
FP,art,'OBL Tagged Physical Cache',' 8KB',2-way,32B,?,0.0367
FP,art,'OBL2 Tagged Physical Cache',' 8KB',2-way,32B,?,0.0084
FP,equake,'OBL Physical Cache',' 8KB',2-way,32B,?,0.0233
FP,equake,'OBL Tagged Physical Cache',' 8KB',2-way,32B,?,0.0208
FP,equake,'OBL2 Tagged Physical Cache',' 8KB',2-way,32B,?,0.0221
INT,bzip2,'OBL Physical Cache',' 8KB',4-way,32B,?,0.008
INT,bzip2,'OBL Tagged Physical Cache',' 8KB',4-way,32B,?,0.0109
INT,bzip2,'OBL2 Tagged Physical Cache',' 8KB',4-way,32B,?,0.0136
INT,crafty,'OBL Physical Cache',' 8KB',4-way,32B,?,0.0296
INT,crafty,'OBL Tagged Physical Cache',' 8KB',4-way,32B,?,0.0434
INT,crafty,'OBL2 Tagged Physical Cache',' 8KB',4-way,32B,?,0.0485
INT,gap,'OBL Physical Cache',' 8KB',4-way,32B,?,0.0186
INT,gap,'OBL Tagged Physical Cache',' 8KB',4-way,32B,?,0.0382
INT,gap,'OBL2 Tagged Physical Cache',' 8KB',4-way,32B,?,0.0461
INT,cc1,'OBL Physical Cache',' 8KB',4-way,32B,?,0.0214
INT,cc1,'OBL Tagged Physical Cache',' 8KB',4-way,32B,?,0.0321
INT,cc1,'OBL2 Tagged Physical Cache',' 8KB',4-way,32B,?,0.0378
INT,gzip,'OBL Physical Cache',' 8KB',4-way,32B,?,0.029
INT,gzip,'OBL Tagged Physical Cache',' 8KB',4-way,32B,?,0.0352
INT,gzip,'OBL2 Tagged Physical Cache',' 8KB',4-way,32B,?,0.0372
INT,parser,'OBL Physical Cache',' 8KB',4-way,32B,?,0.022
INT,parser,'OBL Tagged Physical Cache',' 8KB',4-way,32B,?,0.0287
INT,parser,'OBL2 Tagged Physical Cache',' 8KB',4-way,32B,?,0.0334
FP,mesa,'OBL Physical Cache',' 8KB',4-way,32B,?,0.0018
FP,mesa,'OBL Tagged Physical Cache',' 8KB',4-way,32B,?,0.0096
FP,mesa,'OBL2 Tagged Physical Cache',' 8KB',4-way,32B,?,0.0142
FP,art,'OBL Physical Cache',' 8KB',4-way,32B,?,0.0498
FP,art,'OBL Tagged Physical Cache',' 8KB',4-way,32B,?,0.0365
FP,art,'OBL2 Tagged Physical Cache',' 8KB',4-way,32B,?,0.0098
FP,equake,'OBL Physical Cache',' 8KB',4-way,32B,?,0.0134
FP,equake,'OBL Tagged Physical Cache',' 8KB',4-way,32B,?,0.0259
FP,equake,'OBL2 Tagged Physical Cache',' 8KB',4-way,32B,?,0.0279
INT,bzip2,'OBL Physical Cache',' 8KB',8-way,32B,?,0.0085
INT,bzip2,'OBL Tagged Physical Cache',' 8KB',8-way,32B,?,0.0149
INT,bzip2,'OBL2 Tagged Physical Cache',' 8KB',8-way,32B,?,0.018
INT,crafty,'OBL Physical Cache',' 8KB',8-way,32B,?,0.0303
INT,crafty,'OBL Tagged Physical Cache',' 8KB',8-way,32B,?,0.0539
INT,crafty,'OBL2 Tagged Physical Cache',' 8KB',8-way,32B,?,0.06
INT,gap,'OBL Physical Cache',' 8KB',8-way,32B,?,0.0192
INT,gap,'OBL Tagged Physical Cache',' 8KB',8-way,32B,?,0.0507
INT,gap,'OBL2 Tagged Physical Cache',' 8KB',8-way,32B,?,0.0594
INT,cc1,'OBL Physical Cache',' 8KB',8-way,32B,?,0.0225
INT,cc1,'OBL Tagged Physical Cache',' 8KB',8-way,32B,?,0.0422
INT,cc1,'OBL2 Tagged Physical Cache',' 8KB',8-way,32B,?,0.0487
INT,gzip,'OBL Physical Cache',' 8KB',8-way,32B,?,0.029
INT,gzip,'OBL Tagged Physical Cache',' 8KB',8-way,32B,?,0.0325
INT,gzip,'OBL2 Tagged Physical Cache',' 8KB',8-way,32B,?,0.0349
INT,parser,'OBL Physical Cache',' 8KB',8-way,32B,?,0.0229
INT,parser,'OBL Tagged Physical Cache',' 8KB',8-way,32B,?,0.0315
INT,parser,'OBL2 Tagged Physical Cache',' 8KB',8-way,32B,?,0.0353
FP,mesa,'OBL Physical Cache',' 8KB',8-way,32B,?,0.0021
FP,mesa,'OBL Tagged Physical Cache',' 8KB',8-way,32B,?,0.0209
FP,mesa,'OBL2 Tagged Physical Cache',' 8KB',8-way,32B,?,0.0226
FP,art,'OBL Physical Cache',' 8KB',8-way,32B,?,0.0497
FP,art,'OBL Tagged Physical Cache',' 8KB',8-way,32B,?,0.0481
FP,art,'OBL2 Tagged Physical Cache',' 8KB',8-way,32B,?,0.0162
FP,equake,'OBL Physical Cache',' 8KB',8-way,32B,?,0.0097
FP,equake,'OBL Tagged Physical Cache',' 8KB',8-way,32B,?,0.0246
FP,equake,'OBL2 Tagged Physical Cache',' 8KB',8-way,32B,?,0.0304
INT,bzip2,'OBL Physical Cache',' 16KB',1-way,8B,?,0.0096
INT,bzip2,'OBL Tagged Physical Cache',' 16KB',1-way,8B,?,0.0075
INT,bzip2,'OBL2 Tagged Physical Cache',' 16KB',1-way,8B,?,0.0077
INT,crafty,'OBL Physical Cache',' 16KB',1-way,8B,?,0.0185
INT,crafty,'OBL Tagged Physical Cache',' 16KB',1-way,8B,?,0.0184
INT,crafty,'OBL2 Tagged Physical Cache',' 16KB',1-way,8B,?,0.0208
INT,gap,'OBL Physical Cache',' 16KB',1-way,8B,?,0.0364
INT,gap,'OBL Tagged Physical Cache',' 16KB',1-way,8B,?,0.0256
INT,gap,'OBL2 Tagged Physical Cache',' 16KB',1-way,8B,?,0.0255
INT,cc1,'OBL Physical Cache',' 16KB',1-way,8B,?,0.0348
INT,cc1,'OBL Tagged Physical Cache',' 16KB',1-way,8B,?,0.0319
INT,cc1,'OBL2 Tagged Physical Cache',' 16KB',1-way,8B,?,0.0214
INT,gzip,'OBL Physical Cache',' 16KB',1-way,8B,?,0.0389
INT,gzip,'OBL Tagged Physical Cache',' 16KB',1-way,8B,?,0.03
INT,gzip,'OBL2 Tagged Physical Cache',' 16KB',1-way,8B,?,0.0267
INT,parser,'OBL Physical Cache',' 16KB',1-way,8B,?,0.053
INT,parser,'OBL Tagged Physical Cache',' 16KB',1-way,8B,?,0.0369
INT,parser,'OBL2 Tagged Physical Cache',' 16KB',1-way,8B,?,0.0282
FP,mesa,'OBL Physical Cache',' 16KB',1-way,8B,?,0.0053
FP,mesa,'OBL Tagged Physical Cache',' 16KB',1-way,8B,?,0.001
FP,mesa,'OBL2 Tagged Physical Cache',' 16KB',1-way,8B,?,0.0011
FP,art,'OBL Physical Cache',' 16KB',1-way,8B,?,0.0863
FP,art,'OBL Tagged Physical Cache',' 16KB',1-way,8B,?,0.0799
FP,art,'OBL2 Tagged Physical Cache',' 16KB',1-way,8B,?,0.079
FP,equake,'OBL Physical Cache',' 16KB',1-way,8B,?,0.03
FP,equake,'OBL Tagged Physical Cache',' 16KB',1-way,8B,?,0.0181
FP,equake,'OBL2 Tagged Physical Cache',' 16KB',1-way,8B,?,0.0079
INT,bzip2,'OBL Physical Cache',' 16KB',1-way,16B,?,0.0088
INT,bzip2,'OBL Tagged Physical Cache',' 16KB',1-way,16B,?,0.0086
INT,bzip2,'OBL2 Tagged Physical Cache',' 16KB',1-way,16B,?,0.0088
INT,crafty,'OBL Physical Cache',' 16KB',1-way,16B,?,0.0213
INT,crafty,'OBL Tagged Physical Cache',' 16KB',1-way,16B,?,0.0223
INT,crafty,'OBL2 Tagged Physical Cache',' 16KB',1-way,16B,?,0.0252
INT,gap,'OBL Physical Cache',' 16KB',1-way,16B,?,0.0282
INT,gap,'OBL Tagged Physical Cache',' 16KB',1-way,16B,?,0.0229
INT,gap,'OBL2 Tagged Physical Cache',' 16KB',1-way,16B,?,0.0241
INT,cc1,'OBL Physical Cache',' 16KB',1-way,16B,?,0.0274
INT,cc1,'OBL Tagged Physical Cache',' 16KB',1-way,16B,?,0.0205
INT,cc1,'OBL2 Tagged Physical Cache',' 16KB',1-way,16B,?,0.0211
INT,gzip,'OBL Physical Cache',' 16KB',1-way,16B,?,0.0338
INT,gzip,'OBL Tagged Physical Cache',' 16KB',1-way,16B,?,0.0277
INT,gzip,'OBL2 Tagged Physical Cache',' 16KB',1-way,16B,?,0.0291
INT,parser,'OBL Physical Cache',' 16KB',1-way,16B,?,0.0341
INT,parser,'OBL Tagged Physical Cache',' 16KB',1-way,16B,?,0.0218
INT,parser,'OBL2 Tagged Physical Cache',' 16KB',1-way,16B,?,0.0214
FP,mesa,'OBL Physical Cache',' 16KB',1-way,16B,?,0.0035
FP,mesa,'OBL Tagged Physical Cache',' 16KB',1-way,16B,?,0.0016
FP,mesa,'OBL2 Tagged Physical Cache',' 16KB',1-way,16B,?,0.002
FP,art,'OBL Physical Cache',' 16KB',1-way,16B,?,0.0773
FP,art,'OBL Tagged Physical Cache',' 16KB',1-way,16B,?,0.0723
FP,art,'OBL2 Tagged Physical Cache',' 16KB',1-way,16B,?,0.0536
FP,equake,'OBL Physical Cache',' 16KB',1-way,16B,?,0.0215
FP,equake,'OBL Tagged Physical Cache',' 16KB',1-way,16B,?,0.0112
FP,equake,'OBL2 Tagged Physical Cache',' 16KB',1-way,16B,?,0.0125
INT,bzip2,'OBL Physical Cache',' 16KB',1-way,32B,?,0.0085
INT,bzip2,'OBL Tagged Physical Cache',' 16KB',1-way,32B,?,0.0082
INT,bzip2,'OBL2 Tagged Physical Cache',' 16KB',1-way,32B,?,0.0088
INT,crafty,'OBL Physical Cache',' 16KB',1-way,32B,?,0.0249
INT,crafty,'OBL Tagged Physical Cache',' 16KB',1-way,32B,?,0.0254
INT,crafty,'OBL2 Tagged Physical Cache',' 16KB',1-way,32B,?,0.0286
INT,gap,'OBL Physical Cache',' 16KB',1-way,32B,?,0.0292
INT,gap,'OBL Tagged Physical Cache',' 16KB',1-way,32B,?,0.0277
INT,gap,'OBL2 Tagged Physical Cache',' 16KB',1-way,32B,?,0.031
INT,cc1,'OBL Physical Cache',' 16KB',1-way,32B,?,0.0249
INT,cc1,'OBL Tagged Physical Cache',' 16KB',1-way,32B,?,0.0216
INT,cc1,'OBL2 Tagged Physical Cache',' 16KB',1-way,32B,?,0.0238
INT,gzip,'OBL Physical Cache',' 16KB',1-way,32B,?,0.0306
INT,gzip,'OBL Tagged Physical Cache',' 16KB',1-way,32B,?,0.0283
INT,gzip,'OBL2 Tagged Physical Cache',' 16KB',1-way,32B,?,0.0301
INT,parser,'OBL Physical Cache',' 16KB',1-way,32B,?,0.0238
INT,parser,'OBL Tagged Physical Cache',' 16KB',1-way,32B,?,0.0177
INT,parser,'OBL2 Tagged Physical Cache',' 16KB',1-way,32B,?,0.0186
FP,mesa,'OBL Physical Cache',' 16KB',1-way,32B,?,0.0058
FP,mesa,'OBL Tagged Physical Cache',' 16KB',1-way,32B,?,0.0053
FP,mesa,'OBL2 Tagged Physical Cache',' 16KB',1-way,32B,?,0.0062
FP,art,'OBL Physical Cache',' 16KB',1-way,32B,?,0.0531
FP,art,'OBL Tagged Physical Cache',' 16KB',1-way,32B,?,0.0372
FP,art,'OBL2 Tagged Physical Cache',' 16KB',1-way,32B,?,0.0072
FP,equake,'OBL Physical Cache',' 16KB',1-way,32B,?,0.0175
FP,equake,'OBL Tagged Physical Cache',' 16KB',1-way,32B,?,0.0355
FP,equake,'OBL2 Tagged Physical Cache',' 16KB',1-way,32B,?,0.0435
INT,bzip2,'OBL Physical Cache',' 16KB',1-way,64B,?,0.0107
INT,bzip2,'OBL Tagged Physical Cache',' 16KB',1-way,64B,?,0.0109
INT,bzip2,'OBL2 Tagged Physical Cache',' 16KB',1-way,64B,?,0.0117
INT,crafty,'OBL Physical Cache',' 16KB',1-way,64B,?,0.0313
INT,crafty,'OBL Tagged Physical Cache',' 16KB',1-way,64B,?,0.0325
INT,crafty,'OBL2 Tagged Physical Cache',' 16KB',1-way,64B,?,0.0367
INT,gap,'OBL Physical Cache',' 16KB',1-way,64B,?,0.0274
INT,gap,'OBL Tagged Physical Cache',' 16KB',1-way,64B,?,0.0275
INT,gap,'OBL2 Tagged Physical Cache',' 16KB',1-way,64B,?,0.0327
INT,cc1,'OBL Physical Cache',' 16KB',1-way,64B,?,0.0239
INT,cc1,'OBL Tagged Physical Cache',' 16KB',1-way,64B,?,0.0234
INT,cc1,'OBL2 Tagged Physical Cache',' 16KB',1-way,64B,?,0.027
INT,gzip,'OBL Physical Cache',' 16KB',1-way,64B,?,0.0318
INT,gzip,'OBL Tagged Physical Cache',' 16KB',1-way,64B,?,0.0315
INT,gzip,'OBL2 Tagged Physical Cache',' 16KB',1-way,64B,?,0.0345
INT,parser,'OBL Physical Cache',' 16KB',1-way,64B,?,0.0213
INT,parser,'OBL Tagged Physical Cache',' 16KB',1-way,64B,?,0.0189
INT,parser,'OBL2 Tagged Physical Cache',' 16KB',1-way,64B,?,0.0218
FP,mesa,'OBL Physical Cache',' 16KB',1-way,64B,?,0.0034
FP,mesa,'OBL Tagged Physical Cache',' 16KB',1-way,64B,?,0.0034
FP,mesa,'OBL2 Tagged Physical Cache',' 16KB',1-way,64B,?,0.0061
FP,art,'OBL Physical Cache',' 16KB',1-way,64B,?,0.0329
FP,art,'OBL Tagged Physical Cache',' 16KB',1-way,64B,?,0.008
FP,art,'OBL2 Tagged Physical Cache',' 16KB',1-way,64B,?,0.0099
FP,equake,'OBL Physical Cache',' 16KB',1-way,64B,?,0.0163
FP,equake,'OBL Tagged Physical Cache',' 16KB',1-way,64B,?,0.0159
FP,equake,'OBL2 Tagged Physical Cache',' 16KB',1-way,64B,?,0.0193
INT,bzip2,'OBL Physical Cache',' 16KB',2-way,32B,?,0.0083
INT,bzip2,'OBL Tagged Physical Cache',' 16KB',2-way,32B,?,0.0083
INT,bzip2,'OBL2 Tagged Physical Cache',' 16KB',2-way,32B,?,0.0087
INT,crafty,'OBL Physical Cache',' 16KB',2-way,32B,?,0.022
INT,crafty,'OBL Tagged Physical Cache',' 16KB',2-way,32B,?,0.0237
INT,crafty,'OBL2 Tagged Physical Cache',' 16KB',2-way,32B,?,0.0259
INT,gap,'OBL Physical Cache',' 16KB',2-way,32B,?,0.0231
INT,gap,'OBL Tagged Physical Cache',' 16KB',2-way,32B,?,0.0231
INT,gap,'OBL2 Tagged Physical Cache',' 16KB',2-way,32B,?,0.0249
INT,cc1,'OBL Physical Cache',' 16KB',2-way,32B,?,0.0208
INT,cc1,'OBL Tagged Physical Cache',' 16KB',2-way,32B,?,0.0195
INT,cc1,'OBL2 Tagged Physical Cache',' 16KB',2-way,32B,?,0.0209
INT,gzip,'OBL Physical Cache',' 16KB',2-way,32B,?,0.0298
INT,gzip,'OBL Tagged Physical Cache',' 16KB',2-way,32B,?,0.026
INT,gzip,'OBL2 Tagged Physical Cache',' 16KB',2-way,32B,?,0.0277
INT,parser,'OBL Physical Cache',' 16KB',2-way,32B,?,0.0214
INT,parser,'OBL Tagged Physical Cache',' 16KB',2-way,32B,?,0.0169
INT,parser,'OBL2 Tagged Physical Cache',' 16KB',2-way,32B,?,0.0174
FP,mesa,'OBL Physical Cache',' 16KB',2-way,32B,?,0.0025
FP,mesa,'OBL Tagged Physical Cache',' 16KB',2-way,32B,?,0.0024
FP,mesa,'OBL2 Tagged Physical Cache',' 16KB',2-way,32B,?,0.0032
FP,art,'OBL Physical Cache',' 16KB',2-way,32B,?,0.0512
FP,art,'OBL Tagged Physical Cache',' 16KB',2-way,32B,?,0.0349
FP,art,'OBL2 Tagged Physical Cache',' 16KB',2-way,32B,?,0.0046
FP,equake,'OBL Physical Cache',' 16KB',2-way,32B,?,0.0152
FP,equake,'OBL Tagged Physical Cache',' 16KB',2-way,32B,?,0.0108
FP,equake,'OBL2 Tagged Physical Cache',' 16KB',2-way,32B,?,0.0113
INT,bzip2,'OBL Physical Cache',' 16KB',4-way,32B,?,0.0069
INT,bzip2,'OBL Tagged Physical Cache',' 16KB',4-way,32B,?,0.0081
INT,bzip2,'OBL2 Tagged Physical Cache',' 16KB',4-way,32B,?,0.0088
INT,crafty,'OBL Physical Cache',' 16KB',4-way,32B,?,0.0133
INT,crafty,'OBL Tagged Physical Cache',' 16KB',4-way,32B,?,0.0248
INT,crafty,'OBL2 Tagged Physical Cache',' 16KB',4-way,32B,?,0.0287
INT,gap,'OBL Physical Cache',' 16KB',4-way,32B,?,0.0107
INT,gap,'OBL Tagged Physical Cache',' 16KB',4-way,32B,?,0.023
INT,gap,'OBL2 Tagged Physical Cache',' 16KB',4-way,32B,?,0.0274
INT,cc1,'OBL Physical Cache',' 16KB',4-way,32B,?,0.0131
INT,cc1,'OBL Tagged Physical Cache',' 16KB',4-way,32B,?,0.0202
INT,cc1,'OBL2 Tagged Physical Cache',' 16KB',4-way,32B,?,0.0235
INT,gzip,'OBL Physical Cache',' 16KB',4-way,32B,?,0.0256
INT,gzip,'OBL Tagged Physical Cache',' 16KB',4-way,32B,?,0.0299
INT,gzip,'OBL2 Tagged Physical Cache',' 16KB',4-way,32B,?,0.0308
INT,parser,'OBL Physical Cache',' 16KB',4-way,32B,?,0.0172
INT,parser,'OBL Tagged Physical Cache',' 16KB',4-way,32B,?,0.0166
INT,parser,'OBL2 Tagged Physical Cache',' 16KB',4-way,32B,?,0.0179
FP,mesa,'OBL Physical Cache',' 16KB',4-way,32B,?,0.0012
FP,mesa,'OBL Tagged Physical Cache',' 16KB',4-way,32B,?,0.0031
FP,mesa,'OBL2 Tagged Physical Cache',' 16KB',4-way,32B,?,0.0056
FP,art,'OBL Physical Cache',' 16KB',4-way,32B,?,0.0497
FP,art,'OBL Tagged Physical Cache',' 16KB',4-way,32B,?,0.0348
FP,art,'OBL2 Tagged Physical Cache',' 16KB',4-way,32B,?,0.0053
FP,equake,'OBL Physical Cache',' 16KB',4-way,32B,?,0.0076
FP,equake,'OBL Tagged Physical Cache',' 16KB',4-way,32B,?,0.0075
FP,equake,'OBL2 Tagged Physical Cache',' 16KB',4-way,32B,?,0.0098
INT,bzip2,'OBL Physical Cache',' 16KB',8-way,32B,?,0.0071
INT,bzip2,'OBL Tagged Physical Cache',' 16KB',8-way,32B,?,0.0113
INT,bzip2,'OBL2 Tagged Physical Cache',' 16KB',8-way,32B,?,0.0124
INT,crafty,'OBL Physical Cache',' 16KB',8-way,32B,?,0.0132
INT,crafty,'OBL Tagged Physical Cache',' 16KB',8-way,32B,?,0.0365
INT,crafty,'OBL2 Tagged Physical Cache',' 16KB',8-way,32B,?,0.0413
INT,gap,'OBL Physical Cache',' 16KB',8-way,32B,?,0.0116
INT,gap,'OBL Tagged Physical Cache',' 16KB',8-way,32B,?,0.0312
INT,gap,'OBL2 Tagged Physical Cache',' 16KB',8-way,32B,?,0.0367
INT,cc1,'OBL Physical Cache',' 16KB',8-way,32B,?,0.0143
INT,cc1,'OBL Tagged Physical Cache',' 16KB',8-way,32B,?,0.0275
INT,cc1,'OBL2 Tagged Physical Cache',' 16KB',8-way,32B,?,0.0315
INT,gzip,'OBL Physical Cache',' 16KB',8-way,32B,?,0.0258
INT,gzip,'OBL Tagged Physical Cache',' 16KB',8-way,32B,?,0.0266
INT,gzip,'OBL2 Tagged Physical Cache',' 16KB',8-way,32B,?,0.028
INT,parser,'OBL Physical Cache',' 16KB',8-way,32B,?,0.0182
INT,parser,'OBL Tagged Physical Cache',' 16KB',8-way,32B,?,0.0248
INT,parser,'OBL2 Tagged Physical Cache',' 16KB',8-way,32B,?,0.0273
FP,mesa,'OBL Physical Cache',' 16KB',8-way,32B,?,0.0014
FP,mesa,'OBL Tagged Physical Cache',' 16KB',8-way,32B,?,0.0029
FP,mesa,'OBL2 Tagged Physical Cache',' 16KB',8-way,32B,?,0.0087
FP,art,'OBL Physical Cache',' 16KB',8-way,32B,?,0.0497
FP,art,'OBL Tagged Physical Cache',' 16KB',8-way,32B,?,0.036
FP,art,'OBL2 Tagged Physical Cache',' 16KB',8-way,32B,?,0.0086
FP,equake,'OBL Physical Cache',' 16KB',8-way,32B,?,0.008
FP,equake,'OBL Tagged Physical Cache',' 16KB',8-way,32B,?,0.014
FP,equake,'OBL2 Tagged Physical Cache',' 16KB',8-way,32B,?,0.0177
INT,bzip2,'OBL Physical Cache',' 32KB',1-way,8B,?,0.0087
INT,bzip2,'OBL Tagged Physical Cache',' 32KB',1-way,8B,?,0.0067
INT,bzip2,'OBL2 Tagged Physical Cache',' 32KB',1-way,8B,?,0.0067
INT,crafty,'OBL Physical Cache',' 32KB',1-way,8B,?,0.0091
INT,crafty,'OBL Tagged Physical Cache',' 32KB',1-way,8B,?,0.009
INT,crafty,'OBL2 Tagged Physical Cache',' 32KB',1-way,8B,?,0.0103
INT,gap,'OBL Physical Cache',' 32KB',1-way,8B,?,0.0274
INT,gap,'OBL Tagged Physical Cache',' 32KB',1-way,8B,?,0.0174
INT,gap,'OBL2 Tagged Physical Cache',' 32KB',1-way,8B,?,0.0169
INT,cc1,'OBL Physical Cache',' 32KB',1-way,8B,?,0.0234
INT,cc1,'OBL Tagged Physical Cache',' 32KB',1-way,8B,?,0.021
INT,cc1,'OBL2 Tagged Physical Cache',' 32KB',1-way,8B,?,0.0134
INT,gzip,'OBL Physical Cache',' 32KB',1-way,8B,?,0.0339
INT,gzip,'OBL Tagged Physical Cache',' 32KB',1-way,8B,?,0.0251
INT,gzip,'OBL2 Tagged Physical Cache',' 32KB',1-way,8B,?,0.0215
INT,parser,'OBL Physical Cache',' 32KB',1-way,8B,?,0.0424
INT,parser,'OBL Tagged Physical Cache',' 32KB',1-way,8B,?,0.026
INT,parser,'OBL2 Tagged Physical Cache',' 32KB',1-way,8B,?,0.0173
FP,mesa,'OBL Physical Cache',' 32KB',1-way,8B,?,0.0043
FP,mesa,'OBL Tagged Physical Cache',' 32KB',1-way,8B,?,0.0009
FP,mesa,'OBL2 Tagged Physical Cache',' 32KB',1-way,8B,?,0.001
FP,art,'OBL Physical Cache',' 32KB',1-way,8B,?,0.0858
FP,art,'OBL Tagged Physical Cache',' 32KB',1-way,8B,?,0.0794
FP,art,'OBL2 Tagged Physical Cache',' 32KB',1-way,8B,?,0.0783
FP,equake,'OBL Physical Cache',' 32KB',1-way,8B,?,0.0269
FP,equake,'OBL Tagged Physical Cache',' 32KB',1-way,8B,?,0.015
FP,equake,'OBL2 Tagged Physical Cache',' 32KB',1-way,8B,?,0.0046
INT,bzip2,'OBL Physical Cache',' 32KB',1-way,16B,?,0.0078
INT,bzip2,'OBL Tagged Physical Cache',' 32KB',1-way,16B,?,0.0069
INT,bzip2,'OBL2 Tagged Physical Cache',' 32KB',1-way,16B,?,0.007
INT,crafty,'OBL Physical Cache',' 32KB',1-way,16B,?,0.01
INT,crafty,'OBL Tagged Physical Cache',' 32KB',1-way,16B,?,0.0109
INT,crafty,'OBL2 Tagged Physical Cache',' 32KB',1-way,16B,?,0.0126
INT,gap,'OBL Physical Cache',' 32KB',1-way,16B,?,0.0198
INT,gap,'OBL Tagged Physical Cache',' 32KB',1-way,16B,?,0.0145
INT,gap,'OBL2 Tagged Physical Cache',' 32KB',1-way,16B,?,0.0149
INT,cc1,'OBL Physical Cache',' 32KB',1-way,16B,?,0.0174
INT,cc1,'OBL Tagged Physical Cache',' 32KB',1-way,16B,?,0.0129
INT,cc1,'OBL2 Tagged Physical Cache',' 32KB',1-way,16B,?,0.0131
INT,gzip,'OBL Physical Cache',' 32KB',1-way,16B,?,0.0278
INT,gzip,'OBL Tagged Physical Cache',' 32KB',1-way,16B,?,0.0216
INT,gzip,'OBL2 Tagged Physical Cache',' 32KB',1-way,16B,?,0.0222
INT,parser,'OBL Physical Cache',' 32KB',1-way,16B,?,0.0277
INT,parser,'OBL Tagged Physical Cache',' 32KB',1-way,16B,?,0.0158
INT,parser,'OBL2 Tagged Physical Cache',' 32KB',1-way,16B,?,0.015
FP,mesa,'OBL Physical Cache',' 32KB',1-way,16B,?,0.0021
FP,mesa,'OBL Tagged Physical Cache',' 32KB',1-way,16B,?,0.0004
FP,mesa,'OBL2 Tagged Physical Cache',' 32KB',1-way,16B,?,0.0005
FP,art,'OBL Physical Cache',' 32KB',1-way,16B,?,0.0765
FP,art,'OBL Tagged Physical Cache',' 32KB',1-way,16B,?,0.0714
FP,art,'OBL2 Tagged Physical Cache',' 32KB',1-way,16B,?,0.0522
FP,equake,'OBL Physical Cache',' 32KB',1-way,16B,?,0.0166
FP,equake,'OBL Tagged Physical Cache',' 32KB',1-way,16B,?,0.0061
FP,equake,'OBL2 Tagged Physical Cache',' 32KB',1-way,16B,?,0.0065
INT,bzip2,'OBL Physical Cache',' 32KB',1-way,32B,?,0.0074
INT,bzip2,'OBL Tagged Physical Cache',' 32KB',1-way,32B,?,0.0071
INT,bzip2,'OBL2 Tagged Physical Cache',' 32KB',1-way,32B,?,0.0074
INT,crafty,'OBL Physical Cache',' 32KB',1-way,32B,?,0.0095
INT,crafty,'OBL Tagged Physical Cache',' 32KB',1-way,32B,?,0.01
INT,crafty,'OBL2 Tagged Physical Cache',' 32KB',1-way,32B,?,0.0117
INT,gap,'OBL Physical Cache',' 32KB',1-way,32B,?,0.0175
INT,gap,'OBL Tagged Physical Cache',' 32KB',1-way,32B,?,0.0152
INT,gap,'OBL2 Tagged Physical Cache',' 32KB',1-way,32B,?,0.0162
INT,cc1,'OBL Physical Cache',' 32KB',1-way,32B,?,0.0155
INT,cc1,'OBL Tagged Physical Cache',' 32KB',1-way,32B,?,0.0122
INT,cc1,'OBL2 Tagged Physical Cache',' 32KB',1-way,32B,?,0.0132
INT,gzip,'OBL Physical Cache',' 32KB',1-way,32B,?,0.0248
INT,gzip,'OBL Tagged Physical Cache',' 32KB',1-way,32B,?,0.022
INT,gzip,'OBL2 Tagged Physical Cache',' 32KB',1-way,32B,?,0.023
INT,parser,'OBL Physical Cache',' 32KB',1-way,32B,?,0.0258
INT,parser,'OBL Tagged Physical Cache',' 32KB',1-way,32B,?,0.0192
INT,parser,'OBL2 Tagged Physical Cache',' 32KB',1-way,32B,?,0.02
FP,mesa,'OBL Physical Cache',' 32KB',1-way,32B,?,0.0014
FP,mesa,'OBL Tagged Physical Cache',' 32KB',1-way,32B,?,0.0007
FP,mesa,'OBL2 Tagged Physical Cache',' 32KB',1-way,32B,?,0.001
FP,art,'OBL Physical Cache',' 32KB',1-way,32B,?,0.0513
FP,art,'OBL Tagged Physical Cache',' 32KB',1-way,32B,?,0.035
FP,art,'OBL2 Tagged Physical Cache',' 32KB',1-way,32B,?,0.0038
FP,equake,'OBL Physical Cache',' 32KB',1-way,32B,?,0.0111
FP,equake,'OBL Tagged Physical Cache',' 32KB',1-way,32B,?,0.0063
FP,equake,'OBL2 Tagged Physical Cache',' 32KB',1-way,32B,?,0.0075
INT,bzip2,'OBL Physical Cache',' 32KB',1-way,64B,?,0.008
INT,bzip2,'OBL Tagged Physical Cache',' 32KB',1-way,64B,?,0.008
INT,bzip2,'OBL2 Tagged Physical Cache',' 32KB',1-way,64B,?,0.0086
INT,crafty,'OBL Physical Cache',' 32KB',1-way,64B,?,0.013
INT,crafty,'OBL Tagged Physical Cache',' 32KB',1-way,64B,?,0.0139
INT,crafty,'OBL2 Tagged Physical Cache',' 32KB',1-way,64B,?,0.0164
INT,gap,'OBL Physical Cache',' 32KB',1-way,64B,?,0.0152
INT,gap,'OBL Tagged Physical Cache',' 32KB',1-way,64B,?,0.0148
INT,gap,'OBL2 Tagged Physical Cache',' 32KB',1-way,64B,?,0.0173
INT,cc1,'OBL Physical Cache',' 32KB',1-way,64B,?,0.0135
INT,cc1,'OBL Tagged Physical Cache',' 32KB',1-way,64B,?,0.0128
INT,cc1,'OBL2 Tagged Physical Cache',' 32KB',1-way,64B,?,0.0147
INT,gzip,'OBL Physical Cache',' 32KB',1-way,64B,?,0.0261
INT,gzip,'OBL Tagged Physical Cache',' 32KB',1-way,64B,?,0.0256
INT,gzip,'OBL2 Tagged Physical Cache',' 32KB',1-way,64B,?,0.0278
INT,parser,'OBL Physical Cache',' 32KB',1-way,64B,?,0.0149
INT,parser,'OBL Tagged Physical Cache',' 32KB',1-way,64B,?,0.0124
INT,parser,'OBL2 Tagged Physical Cache',' 32KB',1-way,64B,?,0.0138
FP,mesa,'OBL Physical Cache',' 32KB',1-way,64B,?,0.0022
FP,mesa,'OBL Tagged Physical Cache',' 32KB',1-way,64B,?,0.002
FP,mesa,'OBL2 Tagged Physical Cache',' 32KB',1-way,64B,?,0.0022
FP,art,'OBL Physical Cache',' 32KB',1-way,64B,?,0.0306
FP,art,'OBL Tagged Physical Cache',' 32KB',1-way,64B,?,0.0047
FP,art,'OBL2 Tagged Physical Cache',' 32KB',1-way,64B,?,0.0057
FP,equake,'OBL Physical Cache',' 32KB',1-way,64B,?,0.0104
FP,equake,'OBL Tagged Physical Cache',' 32KB',1-way,64B,?,0.0087
FP,equake,'OBL2 Tagged Physical Cache',' 32KB',1-way,64B,?,0.01
INT,bzip2,'OBL Physical Cache',' 32KB',2-way,32B,?,0.007
INT,bzip2,'OBL Tagged Physical Cache',' 32KB',2-way,32B,?,0.0066
INT,bzip2,'OBL2 Tagged Physical Cache',' 32KB',2-way,32B,?,0.0068
INT,crafty,'OBL Physical Cache',' 32KB',2-way,32B,?,0.0105
INT,crafty,'OBL Tagged Physical Cache',' 32KB',2-way,32B,?,0.0131
INT,crafty,'OBL2 Tagged Physical Cache',' 32KB',2-way,32B,?,0.0148
INT,gap,'OBL Physical Cache',' 32KB',2-way,32B,?,0.0145
INT,gap,'OBL Tagged Physical Cache',' 32KB',2-way,32B,?,0.0141
INT,gap,'OBL2 Tagged Physical Cache',' 32KB',2-way,32B,?,0.0149
INT,cc1,'OBL Physical Cache',' 32KB',2-way,32B,?,0.013
INT,cc1,'OBL Tagged Physical Cache',' 32KB',2-way,32B,?,0.0117
INT,cc1,'OBL2 Tagged Physical Cache',' 32KB',2-way,32B,?,0.0122
INT,gzip,'OBL Physical Cache',' 32KB',2-way,32B,?,0.0242
INT,gzip,'OBL Tagged Physical Cache',' 32KB',2-way,32B,?,0.0209
INT,gzip,'OBL2 Tagged Physical Cache',' 32KB',2-way,32B,?,0.0218
INT,parser,'OBL Physical Cache',' 32KB',2-way,32B,?,0.0166
INT,parser,'OBL Tagged Physical Cache',' 32KB',2-way,32B,?,0.0115
INT,parser,'OBL2 Tagged Physical Cache',' 32KB',2-way,32B,?,0.0115
FP,mesa,'OBL Physical Cache',' 32KB',2-way,32B,?,0.0015
FP,mesa,'OBL Tagged Physical Cache',' 32KB',2-way,32B,?,0.0004
FP,mesa,'OBL2 Tagged Physical Cache',' 32KB',2-way,32B,?,0.0007
FP,art,'OBL Physical Cache',' 32KB',2-way,32B,?,0.0505
FP,art,'OBL Tagged Physical Cache',' 32KB',2-way,32B,?,0.0341
FP,art,'OBL2 Tagged Physical Cache',' 32KB',2-way,32B,?,0.0029
FP,equake,'OBL Physical Cache',' 32KB',2-way,32B,?,0.0086
FP,equake,'OBL Tagged Physical Cache',' 32KB',2-way,32B,?,0.0044
FP,equake,'OBL2 Tagged Physical Cache',' 32KB',2-way,32B,?,0.0055
INT,bzip2,'OBL Physical Cache',' 32KB',4-way,32B,?,0.0064
INT,bzip2,'OBL Tagged Physical Cache',' 32KB',4-way,32B,?,0.0069
INT,bzip2,'OBL2 Tagged Physical Cache',' 32KB',4-way,32B,?,0.0071
INT,crafty,'OBL Physical Cache',' 32KB',4-way,32B,?,0.0045
INT,crafty,'OBL Tagged Physical Cache',' 32KB',4-way,32B,?,0.0123
INT,crafty,'OBL2 Tagged Physical Cache',' 32KB',4-way,32B,?,0.015
INT,gap,'OBL Physical Cache',' 32KB',4-way,32B,?,0.0075
INT,gap,'OBL Tagged Physical Cache',' 32KB',4-way,32B,?,0.0143
INT,gap,'OBL2 Tagged Physical Cache',' 32KB',4-way,32B,?,0.0165
INT,cc1,'OBL Physical Cache',' 32KB',4-way,32B,?,0.008
INT,cc1,'OBL Tagged Physical Cache',' 32KB',4-way,32B,?,0.0125
INT,cc1,'OBL2 Tagged Physical Cache',' 32KB',4-way,32B,?,0.0143
INT,gzip,'OBL Physical Cache',' 32KB',4-way,32B,?,0.0226
INT,gzip,'OBL Tagged Physical Cache',' 32KB',4-way,32B,?,0.0205
INT,gzip,'OBL2 Tagged Physical Cache',' 32KB',4-way,32B,?,0.0211
INT,parser,'OBL Physical Cache',' 32KB',4-way,32B,?,0.0143
INT,parser,'OBL Tagged Physical Cache',' 32KB',4-way,32B,?,0.0123
INT,parser,'OBL2 Tagged Physical Cache',' 32KB',4-way,32B,?,0.0127
FP,mesa,'OBL Physical Cache',' 32KB',4-way,32B,?,0.0009
FP,mesa,'OBL Tagged Physical Cache',' 32KB',4-way,32B,?,0.002
FP,mesa,'OBL2 Tagged Physical Cache',' 32KB',4-way,32B,?,0.0023
FP,art,'OBL Physical Cache',' 32KB',4-way,32B,?,0.0497
FP,art,'OBL Tagged Physical Cache',' 32KB',4-way,32B,?,0.0339
FP,art,'OBL2 Tagged Physical Cache',' 32KB',4-way,32B,?,0.0031
FP,equake,'OBL Physical Cache',' 32KB',4-way,32B,?,0.007
FP,equake,'OBL Tagged Physical Cache',' 32KB',4-way,32B,?,0.0063
FP,equake,'OBL2 Tagged Physical Cache',' 32KB',4-way,32B,?,0.0072
INT,bzip2,'OBL Physical Cache',' 32KB',8-way,32B,?,0.0065
INT,bzip2,'OBL Tagged Physical Cache',' 32KB',8-way,32B,?,0.0084
INT,bzip2,'OBL2 Tagged Physical Cache',' 32KB',8-way,32B,?,0.0085
INT,crafty,'OBL Physical Cache',' 32KB',8-way,32B,?,0.0048
INT,crafty,'OBL Tagged Physical Cache',' 32KB',8-way,32B,?,0.0207
INT,crafty,'OBL2 Tagged Physical Cache',' 32KB',8-way,32B,?,0.0241
INT,gap,'OBL Physical Cache',' 32KB',8-way,32B,?,0.0081
INT,gap,'OBL Tagged Physical Cache',' 32KB',8-way,32B,?,0.0196
INT,gap,'OBL2 Tagged Physical Cache',' 32KB',8-way,32B,?,0.0226
INT,cc1,'OBL Physical Cache',' 32KB',8-way,32B,?,0.0086
INT,cc1,'OBL Tagged Physical Cache',' 32KB',8-way,32B,?,0.0172
INT,cc1,'OBL2 Tagged Physical Cache',' 32KB',8-way,32B,?,0.0197
INT,gzip,'OBL Physical Cache',' 32KB',8-way,32B,?,0.0225
INT,gzip,'OBL Tagged Physical Cache',' 32KB',8-way,32B,?,0.0218
INT,gzip,'OBL2 Tagged Physical Cache',' 32KB',8-way,32B,?,0.0225
INT,parser,'OBL Physical Cache',' 32KB',8-way,32B,?,0.0148
INT,parser,'OBL Tagged Physical Cache',' 32KB',8-way,32B,?,0.0147
INT,parser,'OBL2 Tagged Physical Cache',' 32KB',8-way,32B,?,0.0156
FP,mesa,'OBL Physical Cache',' 32KB',8-way,32B,?,0.0011
FP,mesa,'OBL Tagged Physical Cache',' 32KB',8-way,32B,?,0.0144
FP,mesa,'OBL2 Tagged Physical Cache',' 32KB',8-way,32B,?,0.0135
FP,art,'OBL Physical Cache',' 32KB',8-way,32B,?,0.05
FP,art,'OBL Tagged Physical Cache',' 32KB',8-way,32B,?,0.0864
FP,art,'OBL2 Tagged Physical Cache',' 32KB',8-way,32B,?,0.0508
FP,equake,'OBL Physical Cache',' 32KB',8-way,32B,?,0.0071
FP,equake,'OBL Tagged Physical Cache',' 32KB',8-way,32B,?,0.0069
FP,equake,'OBL2 Tagged Physical Cache',' 32KB',8-way,32B,?,0.0098
INT,bzip2,'OBL Physical Cache',' 64KB',1-way,8B,?,0.0079
INT,bzip2,'OBL Tagged Physical Cache',' 64KB',1-way,8B,?,0.0059
INT,bzip2,'OBL2 Tagged Physical Cache',' 64KB',1-way,8B,?,0.006
INT,crafty,'OBL Physical Cache',' 64KB',1-way,8B,?,0.0033
INT,crafty,'OBL Tagged Physical Cache',' 64KB',1-way,8B,?,0.0033
INT,crafty,'OBL2 Tagged Physical Cache',' 64KB',1-way,8B,?,0.0037
INT,gap,'OBL Physical Cache',' 64KB',1-way,8B,?,0.0221
INT,gap,'OBL Tagged Physical Cache',' 64KB',1-way,8B,?,0.0123
INT,gap,'OBL2 Tagged Physical Cache',' 64KB',1-way,8B,?,0.0113
INT,cc1,'OBL Physical Cache',' 64KB',1-way,8B,?,0.0142
INT,cc1,'OBL Tagged Physical Cache',' 64KB',1-way,8B,?,0.0123
INT,cc1,'OBL2 Tagged Physical Cache',' 64KB',1-way,8B,?,0.0084
INT,gzip,'OBL Physical Cache',' 64KB',1-way,8B,?,0.0283
INT,gzip,'OBL Tagged Physical Cache',' 64KB',1-way,8B,?,0.0204
INT,gzip,'OBL2 Tagged Physical Cache',' 64KB',1-way,8B,?,0.0171
INT,parser,'OBL Physical Cache',' 64KB',1-way,8B,?,0.0353
INT,parser,'OBL Tagged Physical Cache',' 64KB',1-way,8B,?,0.0197
INT,parser,'OBL2 Tagged Physical Cache',' 64KB',1-way,8B,?,0.0133
FP,mesa,'OBL Physical Cache',' 64KB',1-way,8B,?,0.0049
FP,mesa,'OBL Tagged Physical Cache',' 64KB',1-way,8B,?,0.0022
FP,mesa,'OBL2 Tagged Physical Cache',' 64KB',1-way,8B,?,0.0028
FP,art,'OBL Physical Cache',' 64KB',1-way,8B,?,0.085
FP,art,'OBL Tagged Physical Cache',' 64KB',1-way,8B,?,0.0784
FP,art,'OBL2 Tagged Physical Cache',' 64KB',1-way,8B,?,0.0777
FP,equake,'OBL Physical Cache',' 64KB',1-way,8B,?,0.025
FP,equake,'OBL Tagged Physical Cache',' 64KB',1-way,8B,?,0.0136
FP,equake,'OBL2 Tagged Physical Cache',' 64KB',1-way,8B,?,0.0031
INT,bzip2,'OBL Physical Cache',' 64KB',1-way,16B,?,0.007
INT,bzip2,'OBL Tagged Physical Cache',' 64KB',1-way,16B,?,0.006
INT,bzip2,'OBL2 Tagged Physical Cache',' 64KB',1-way,16B,?,0.0061
INT,crafty,'OBL Physical Cache',' 64KB',1-way,16B,?,0.0039
INT,crafty,'OBL Tagged Physical Cache',' 64KB',1-way,16B,?,0.004
INT,crafty,'OBL2 Tagged Physical Cache',' 64KB',1-way,16B,?,0.0045
INT,gap,'OBL Physical Cache',' 64KB',1-way,16B,?,0.0135
INT,gap,'OBL Tagged Physical Cache',' 64KB',1-way,16B,?,0.0096
INT,gap,'OBL2 Tagged Physical Cache',' 64KB',1-way,16B,?,0.0098
INT,cc1,'OBL Physical Cache',' 64KB',1-way,16B,?,0.0114
INT,cc1,'OBL Tagged Physical Cache',' 64KB',1-way,16B,?,0.0081
INT,cc1,'OBL2 Tagged Physical Cache',' 64KB',1-way,16B,?,0.0079
INT,gzip,'OBL Physical Cache',' 64KB',1-way,16B,?,0.0227
INT,gzip,'OBL Tagged Physical Cache',' 64KB',1-way,16B,?,0.0171
INT,gzip,'OBL2 Tagged Physical Cache',' 64KB',1-way,16B,?,0.0176
INT,parser,'OBL Physical Cache',' 64KB',1-way,16B,?,0.0228
INT,parser,'OBL Tagged Physical Cache',' 64KB',1-way,16B,?,0.0121
INT,parser,'OBL2 Tagged Physical Cache',' 64KB',1-way,16B,?,0.0112
FP,mesa,'OBL Physical Cache',' 64KB',1-way,16B,?,0.0016
FP,mesa,'OBL Tagged Physical Cache',' 64KB',1-way,16B,?,0.0002
FP,mesa,'OBL2 Tagged Physical Cache',' 64KB',1-way,16B,?,0.0002
FP,art,'OBL Physical Cache',' 64KB',1-way,16B,?,0.0759
FP,art,'OBL Tagged Physical Cache',' 64KB',1-way,16B,?,0.0708
FP,art,'OBL2 Tagged Physical Cache',' 64KB',1-way,16B,?,0.0514
FP,equake,'OBL Physical Cache',' 64KB',1-way,16B,?,0.0134
FP,equake,'OBL Tagged Physical Cache',' 64KB',1-way,16B,?,0.0028
FP,equake,'OBL2 Tagged Physical Cache',' 64KB',1-way,16B,?,0.0028
INT,bzip2,'OBL Physical Cache',' 64KB',1-way,32B,?,0.0065
INT,bzip2,'OBL Tagged Physical Cache',' 64KB',1-way,32B,?,0.0061
INT,bzip2,'OBL2 Tagged Physical Cache',' 64KB',1-way,32B,?,0.0063
INT,crafty,'OBL Physical Cache',' 64KB',1-way,32B,?,0.0061
INT,crafty,'OBL Tagged Physical Cache',' 64KB',1-way,32B,?,0.0063
INT,crafty,'OBL2 Tagged Physical Cache',' 64KB',1-way,32B,?,0.0073
INT,gap,'OBL Physical Cache',' 64KB',1-way,32B,?,0.0107
INT,gap,'OBL Tagged Physical Cache',' 64KB',1-way,32B,?,0.0084
INT,gap,'OBL2 Tagged Physical Cache',' 64KB',1-way,32B,?,0.0088
INT,cc1,'OBL Physical Cache',' 64KB',1-way,32B,?,0.0089
INT,cc1,'OBL Tagged Physical Cache',' 64KB',1-way,32B,?,0.0073
INT,cc1,'OBL2 Tagged Physical Cache',' 64KB',1-way,32B,?,0.0076
INT,gzip,'OBL Physical Cache',' 64KB',1-way,32B,?,0.0198
INT,gzip,'OBL Tagged Physical Cache',' 64KB',1-way,32B,?,0.0172
INT,gzip,'OBL2 Tagged Physical Cache',' 64KB',1-way,32B,?,0.0179
INT,parser,'OBL Physical Cache',' 64KB',1-way,32B,?,0.0144
INT,parser,'OBL Tagged Physical Cache',' 64KB',1-way,32B,?,0.0089
INT,parser,'OBL2 Tagged Physical Cache',' 64KB',1-way,32B,?,0.0089
FP,mesa,'OBL Physical Cache',' 64KB',1-way,32B,?,0.0014
FP,mesa,'OBL Tagged Physical Cache',' 64KB',1-way,32B,?,0.0008
FP,mesa,'OBL2 Tagged Physical Cache',' 64KB',1-way,32B,?,0.001
FP,art,'OBL Physical Cache',' 64KB',1-way,32B,?,0.0505
FP,art,'OBL Tagged Physical Cache',' 64KB',1-way,32B,?,0.0341
FP,art,'OBL2 Tagged Physical Cache',' 64KB',1-way,32B,?,0.0025
FP,equake,'OBL Physical Cache',' 64KB',1-way,32B,?,0.0083
FP,equake,'OBL Tagged Physical Cache',' 64KB',1-way,32B,?,0.0033
FP,equake,'OBL2 Tagged Physical Cache',' 64KB',1-way,32B,?,0.0036
INT,bzip2,'OBL Physical Cache',' 64KB',1-way,64B,?,0.0065
INT,bzip2,'OBL Tagged Physical Cache',' 64KB',1-way,64B,?,0.0064
INT,bzip2,'OBL2 Tagged Physical Cache',' 64KB',1-way,64B,?,0.0067
INT,crafty,'OBL Physical Cache',' 64KB',1-way,64B,?,0.0064
INT,crafty,'OBL Tagged Physical Cache',' 64KB',1-way,64B,?,0.0067
INT,crafty,'OBL2 Tagged Physical Cache',' 64KB',1-way,64B,?,0.008
INT,gap,'OBL Physical Cache',' 64KB',1-way,64B,?,0.01
INT,gap,'OBL Tagged Physical Cache',' 64KB',1-way,64B,?,0.0091
INT,gap,'OBL2 Tagged Physical Cache',' 64KB',1-way,64B,?,0.0104
INT,cc1,'OBL Physical Cache',' 64KB',1-way,64B,?,0.0084
INT,cc1,'OBL Tagged Physical Cache',' 64KB',1-way,64B,?,0.0075
INT,cc1,'OBL2 Tagged Physical Cache',' 64KB',1-way,64B,?,0.0082
INT,gzip,'OBL Physical Cache',' 64KB',1-way,64B,?,0.0196
INT,gzip,'OBL Tagged Physical Cache',' 64KB',1-way,64B,?,0.0189
INT,gzip,'OBL2 Tagged Physical Cache',' 64KB',1-way,64B,?,0.0203
INT,parser,'OBL Physical Cache',' 64KB',1-way,64B,?,0.0125
INT,parser,'OBL Tagged Physical Cache',' 64KB',1-way,64B,?,0.0102
INT,parser,'OBL2 Tagged Physical Cache',' 64KB',1-way,64B,?,0.0111
FP,mesa,'OBL Physical Cache',' 64KB',1-way,64B,?,0.0006
FP,mesa,'OBL Tagged Physical Cache',' 64KB',1-way,64B,?,0.0003
FP,mesa,'OBL2 Tagged Physical Cache',' 64KB',1-way,64B,?,0.0003
FP,art,'OBL Physical Cache',' 64KB',1-way,64B,?,0.0292
FP,art,'OBL Tagged Physical Cache',' 64KB',1-way,64B,?,0.0029
FP,art,'OBL2 Tagged Physical Cache',' 64KB',1-way,64B,?,0.0035
FP,equake,'OBL Physical Cache',' 64KB',1-way,64B,?,0.006
FP,equake,'OBL Tagged Physical Cache',' 64KB',1-way,64B,?,0.0039
FP,equake,'OBL2 Tagged Physical Cache',' 64KB',1-way,64B,?,0.0047
INT,bzip2,'OBL Physical Cache',' 64KB',2-way,32B,?,0.0065
INT,bzip2,'OBL Tagged Physical Cache',' 64KB',2-way,32B,?,0.006
INT,bzip2,'OBL2 Tagged Physical Cache',' 64KB',2-way,32B,?,0.0062
INT,crafty,'OBL Physical Cache',' 64KB',2-way,32B,?,0.0075
INT,crafty,'OBL Tagged Physical Cache',' 64KB',2-way,32B,?,0.0126
INT,crafty,'OBL2 Tagged Physical Cache',' 64KB',2-way,32B,?,0.0153
INT,gap,'OBL Physical Cache',' 64KB',2-way,32B,?,0.0096
INT,gap,'OBL Tagged Physical Cache',' 64KB',2-way,32B,?,0.008
INT,gap,'OBL2 Tagged Physical Cache',' 64KB',2-way,32B,?,0.0081
INT,cc1,'OBL Physical Cache',' 64KB',2-way,32B,?,0.0081
INT,cc1,'OBL Tagged Physical Cache',' 64KB',2-way,32B,?,0.0073
INT,cc1,'OBL2 Tagged Physical Cache',' 64KB',2-way,32B,?,0.0074
INT,gzip,'OBL Physical Cache',' 64KB',2-way,32B,?,0.0187
INT,gzip,'OBL Tagged Physical Cache',' 64KB',2-way,32B,?,0.0159
INT,gzip,'OBL2 Tagged Physical Cache',' 64KB',2-way,32B,?,0.0165
INT,parser,'OBL Physical Cache',' 64KB',2-way,32B,?,0.0137
INT,parser,'OBL Tagged Physical Cache',' 64KB',2-way,32B,?,0.0092
INT,parser,'OBL2 Tagged Physical Cache',' 64KB',2-way,32B,?,0.0093
FP,mesa,'OBL Physical Cache',' 64KB',2-way,32B,?,0.0011
FP,mesa,'OBL Tagged Physical Cache',' 64KB',2-way,32B,?,0.0002
FP,mesa,'OBL2 Tagged Physical Cache',' 64KB',2-way,32B,?,0.0003
FP,art,'OBL Physical Cache',' 64KB',2-way,32B,?,0.05
FP,art,'OBL Tagged Physical Cache',' 64KB',2-way,32B,?,0.0335
FP,art,'OBL2 Tagged Physical Cache',' 64KB',2-way,32B,?,0.0017
FP,equake,'OBL Physical Cache',' 64KB',2-way,32B,?,0.0097
FP,equake,'OBL Tagged Physical Cache',' 64KB',2-way,32B,?,0.0049
FP,equake,'OBL2 Tagged Physical Cache',' 64KB',2-way,32B,?,0.004
INT,bzip2,'OBL Physical Cache',' 64KB',4-way,32B,?,0.0061
INT,bzip2,'OBL Tagged Physical Cache',' 64KB',4-way,32B,?,0.0059
INT,bzip2,'OBL2 Tagged Physical Cache',' 64KB',4-way,32B,?,0.0061
INT,crafty,'OBL Physical Cache',' 64KB',4-way,32B,?,0.0016
INT,crafty,'OBL Tagged Physical Cache',' 64KB',4-way,32B,?,0.0073
INT,crafty,'OBL2 Tagged Physical Cache',' 64KB',4-way,32B,?,0.0088
INT,gap,'OBL Physical Cache',' 64KB',4-way,32B,?,0.0063
INT,gap,'OBL Tagged Physical Cache',' 64KB',4-way,32B,?,0.0086
INT,gap,'OBL2 Tagged Physical Cache',' 64KB',4-way,32B,?,0.0093
INT,cc1,'OBL Physical Cache',' 64KB',4-way,32B,?,0.005
INT,cc1,'OBL Tagged Physical Cache',' 64KB',4-way,32B,?,0.0078
INT,cc1,'OBL2 Tagged Physical Cache',' 64KB',4-way,32B,?,0.0087
INT,gzip,'OBL Physical Cache',' 64KB',4-way,32B,?,0.0176
INT,gzip,'OBL Tagged Physical Cache',' 64KB',4-way,32B,?,0.0165
INT,gzip,'OBL2 Tagged Physical Cache',' 64KB',4-way,32B,?,0.017
INT,parser,'OBL Physical Cache',' 64KB',4-way,32B,?,0.0117
INT,parser,'OBL Tagged Physical Cache',' 64KB',4-way,32B,?,0.0092
INT,parser,'OBL2 Tagged Physical Cache',' 64KB',4-way,32B,?,0.0094
FP,mesa,'OBL Physical Cache',' 64KB',4-way,32B,?,0.0008
FP,mesa,'OBL Tagged Physical Cache',' 64KB',4-way,32B,?,0.0002
FP,mesa,'OBL2 Tagged Physical Cache',' 64KB',4-way,32B,?,0.0003
FP,art,'OBL Physical Cache',' 64KB',4-way,32B,?,0.0496
FP,art,'OBL Tagged Physical Cache',' 64KB',4-way,32B,?,0.0336
FP,art,'OBL2 Tagged Physical Cache',' 64KB',4-way,32B,?,0.0022
FP,equake,'OBL Physical Cache',' 64KB',4-way,32B,?,0.0064
FP,equake,'OBL Tagged Physical Cache',' 64KB',4-way,32B,?,0.0025
FP,equake,'OBL2 Tagged Physical Cache',' 64KB',4-way,32B,?,0.0028
INT,bzip2,'OBL Physical Cache',' 64KB',8-way,32B,?,0.0061
INT,bzip2,'OBL Tagged Physical Cache',' 64KB',8-way,32B,?,0.0065
INT,bzip2,'OBL2 Tagged Physical Cache',' 64KB',8-way,32B,?,0.0066
INT,crafty,'OBL Physical Cache',' 64KB',8-way,32B,?,0.0017
INT,crafty,'OBL Tagged Physical Cache',' 64KB',8-way,32B,?,0.0103
INT,crafty,'OBL2 Tagged Physical Cache',' 64KB',8-way,32B,?,0.0122
INT,gap,'OBL Physical Cache',' 64KB',8-way,32B,?,0.0066
INT,gap,'OBL Tagged Physical Cache',' 64KB',8-way,32B,?,0.0127
INT,gap,'OBL2 Tagged Physical Cache',' 64KB',8-way,32B,?,0.0146
INT,cc1,'OBL Physical Cache',' 64KB',8-way,32B,?,0.005
INT,cc1,'OBL Tagged Physical Cache',' 64KB',8-way,32B,?,0.011
INT,cc1,'OBL2 Tagged Physical Cache',' 64KB',8-way,32B,?,0.0125
INT,gzip,'OBL Physical Cache',' 64KB',8-way,32B,?,0.0178
INT,gzip,'OBL Tagged Physical Cache',' 64KB',8-way,32B,?,0.0174
INT,gzip,'OBL2 Tagged Physical Cache',' 64KB',8-way,32B,?,0.018
INT,parser,'OBL Physical Cache',' 64KB',8-way,32B,?,0.0121
INT,parser,'OBL Tagged Physical Cache',' 64KB',8-way,32B,?,0.0117
INT,parser,'OBL2 Tagged Physical Cache',' 64KB',8-way,32B,?,0.0121
FP,mesa,'OBL Physical Cache',' 64KB',8-way,32B,?,0.0008
FP,mesa,'OBL Tagged Physical Cache',' 64KB',8-way,32B,?,0.002
FP,mesa,'OBL2 Tagged Physical Cache',' 64KB',8-way,32B,?,0.0061
FP,art,'OBL Physical Cache',' 64KB',8-way,32B,?,0.0495
FP,art,'OBL Tagged Physical Cache',' 64KB',8-way,32B,?,0.0337
FP,art,'OBL2 Tagged Physical Cache',' 64KB',8-way,32B,?,0.0028
FP,equake,'OBL Physical Cache',' 64KB',8-way,32B,?,0.0066
FP,equake,'OBL Tagged Physical Cache',' 64KB',8-way,32B,?,0.0032
FP,equake,'OBL2 Tagged Physical Cache',' 64KB',8-way,32B,?,0.0041
INT,bzip2,'OBL Perceptron Physical Cache',' 64KB',4-way,32B,2-slot,0.0065
INT,crafty,'OBL Perceptron Physical Cache',' 64KB',4-way,32B,2-slot,0.0037
INT,gap,'OBL Perceptron Physical Cache',' 64KB',4-way,32B,2-slot,0.011
INT,cc1,'OBL Perceptron Physical Cache',' 64KB',4-way,32B,2-slot,0.0081
INT,gzip,'OBL Perceptron Physical Cache',' 64KB',4-way,32B,2-slot,0.0183
INT,parser,'OBL Perceptron Physical Cache',' 64KB',4-way,32B,2-slot,0.0154
FP,mesa,'OBL Perceptron Physical Cache',' 64KB',4-way,32B,2-slot,0.0016
FP,art,'OBL Perceptron Physical Cache',' 64KB',4-way,32B,2-slot,0.0758
FP,equake,'OBL Perceptron Physical Cache',' 64KB',4-way,32B,2-slot,0.0123
INT,bzip2,'OBL Perceptron Physical Cache',' 64KB',4-way,32B,4-slot,0.0065
INT,crafty,'OBL Perceptron Physical Cache',' 64KB',4-way,32B,4-slot,0.004
INT,gap,'OBL Perceptron Physical Cache',' 64KB',4-way,32B,4-slot,0.011
INT,cc1,'OBL Perceptron Physical Cache',' 64KB',4-way,32B,4-slot,0.0083
INT,gzip,'OBL Perceptron Physical Cache',' 64KB',4-way,32B,4-slot,0.0185
INT,parser,'OBL Perceptron Physical Cache',' 64KB',4-way,32B,4-slot,0.0123
FP,mesa,'OBL Perceptron Physical Cache',' 64KB',4-way,32B,4-slot,0.0042
FP,art,'OBL Perceptron Physical Cache',' 64KB',4-way,32B,4-slot,0.0772
FP,equake,'OBL Perceptron Physical Cache',' 64KB',4-way,32B,4-slot,0.0118
INT,bzip2,'OBL Perceptron Physical Cache',' 64KB',4-way,32B,16-slot,0.0064
INT,crafty,'OBL Perceptron Physical Cache',' 64KB',4-way,32B,16-slot,0.0041
INT,gap,'OBL Perceptron Physical Cache',' 64KB',4-way,32B,16-slot,0.0107
INT,cc1,'OBL Perceptron Physical Cache',' 64KB',4-way,32B,16-slot,0.0076
INT,gzip,'OBL Perceptron Physical Cache',' 64KB',4-way,32B,16-slot,0.0179
INT,parser,'OBL Perceptron Physical Cache',' 64KB',4-way,32B,16-slot,0.0109
FP,mesa,'OBL Perceptron Physical Cache',' 64KB',4-way,32B,16-slot,0.0011
FP,art,'OBL Perceptron Physical Cache',' 64KB',4-way,32B,16-slot,0.0751
FP,equake,'OBL Perceptron Physical Cache',' 64KB',4-way,32B,16-slot,0.0088
INT,bzip2,'OBL Perceptron Physical Cache',' 64KB',4-way,32B,32-slot,0.0067
INT,crafty,'OBL Perceptron Physical Cache',' 64KB',4-way,32B,32-slot,0.0052
INT,gap,'OBL Perceptron Physical Cache',' 64KB',4-way,32B,32-slot,0.0099
INT,cc1,'OBL Perceptron Physical Cache',' 64KB',4-way,32B,32-slot,0.0073
INT,gzip,'OBL Perceptron Physical Cache',' 64KB',4-way,32B,32-slot,0.0178
INT,parser,'OBL Perceptron Physical Cache',' 64KB',4-way,32B,32-slot,0.0137
FP,mesa,'OBL Perceptron Physical Cache',' 64KB',4-way,32B,32-slot,0.0011
FP,art,'OBL Perceptron Physical Cache',' 64KB',4-way,32B,32-slot,0.0747
FP,equake,'OBL Perceptron Physical Cache',' 64KB',4-way,32B,32-slot,0.008
INT,bzip2,'OBL Perceptron Physical Cache',' 64KB',4-way,32B,64-slot,0.0064
INT,crafty,'OBL Perceptron Physical Cache',' 64KB',4-way,32B,64-slot,0.0037
INT,gap,'OBL Perceptron Physical Cache',' 64KB',4-way,32B,64-slot,0.0099
INT,cc1,'OBL Perceptron Physical Cache',' 64KB',4-way,32B,64-slot,0.0074
INT,gzip,'OBL Perceptron Physical Cache',' 64KB',4-way,32B,64-slot,0.0176
INT,parser,'OBL Perceptron Physical Cache',' 64KB',4-way,32B,64-slot,0.0106
FP,mesa,'OBL Perceptron Physical Cache',' 64KB',4-way,32B,64-slot,0.0028
FP,art,'OBL Perceptron Physical Cache',' 64KB',4-way,32B,64-slot,0.075
FP,equake,'OBL Perceptron Physical Cache',' 64KB',4-way,32B,64-slot,0.0087
